<svg xmlns="http://www.w3.org/2000/svg" xmlns:xlink="http://www.w3.org/1999/xlink" width="169" height="162" viewBox="0 0 169 162">
    <defs>
        <path id="a" d="M29.587.07V14.06H.39V.07h29.196z"/>
    </defs>
    <g fill="none" fill-rule="evenodd">
        <g transform="translate(19.88 6.72)">
            <ellipse cx="72.14" cy="71.871" stroke="#FFF" stroke-width="6" rx="72.14" ry="71.871"/>
            <ellipse cx="72.18" cy="71.97" fill="#FFDE00" rx="56.18" ry="55.97"/>
        </g>
        <g fill="#263136">
            <path d="M111.292 65.381v-3.545c0-1.124-.895-2.045-1.989-2.045H74.805c-1.093 0-1.988.92-1.988 2.045v3.545h38.475zM88.848 74.165a2.4 2.4 0 0 1-2.404 2.396 2.4 2.4 0 0 1-2.405-2.396 2.4 2.4 0 0 1 2.405-2.395 2.4 2.4 0 0 1 2.404 2.395M83.805 82.95v-4.392h1.303v4.392h3.907v-4.392h1.302v4.392h1.737v-3.884c0-.939-.835-1.706-1.855-1.706h-6.71c-1.02 0-1.855.767-1.855 1.706v3.884h2.171zM100.666 75.763h-6.802a.206.206 0 0 1-.206-.206v-1.186c0-.113.092-.206.206-.206h6.802c.114 0 .206.093.206.206v1.186a.206.206 0 0 1-.206.206M102.269 78.158h-8.405a.206.206 0 0 1-.206-.205v-1.186c0-.114.092-.206.206-.206h8.405c.114 0 .206.092.206.206v1.186a.206.206 0 0 1-.206.205M102.269 80.554h-8.405a.206.206 0 0 1-.206-.205v-1.187c0-.113.092-.205.206-.205h8.405c.114 0 .206.092.206.205v1.187a.206.206 0 0 1-.206.205M102.269 82.95h-8.405a.205.205 0 0 1-.206-.206v-1.186c0-.114.092-.205.206-.205h8.405c.114 0 .206.091.206.205v1.186a.205.205 0 0 1-.206.206"/>
            <path d="M70.7 92.482V60.599c0-1.504 1.213-2.728 2.704-2.728h37.297c1.492 0 2.705 1.224 2.705 2.728v31.883h2.512V60.599c0-2.9-2.34-5.261-5.217-5.261H73.404c-2.877 0-5.217 2.36-5.217 5.261v31.883h2.512zM84.517 99.32h15.074v-3.194H84.517v3.194zm31.823-5.19H67.768c-2.072 0-3.768 1.617-3.768 3.593 0 1.977 1.696 3.594 3.768 3.594h48.572c2.073 0 3.769-1.617 3.769-3.594 0-1.976-1.696-3.594-3.769-3.594z"/>
        </g>
        <path fill="#D3D801" d="M65.12 152.212s8.576-2.226 8.561-8.277c-.015-6.05-20.304-19.49-27.71-15.634-7.407 3.856-15.051 7.035-19.222 13.97 0 0 11.491-.727 25.843 7.66 0 0 6.578 3.478 12.528 2.28"/>
        <path fill="#333" d="M74.862 161.436a.616.616 0 0 1-.634-.606c-.002-.089-.23-5.198-5.67-10.87-.7.67-2.18 1.852-4.488 2.538-2.971.882-7.94 1.068-14.753-3.06-12.458-7.55-24.704-5.68-24.826-5.66a.612.612 0 0 1-.62-.283.63.63 0 0 1 .02-.689c.152-.222 14.979-21.365 33.973-12.906.631.282 1.27.597 1.91.945 8.977 4.887 13.682 9.425 13.986 13.49.19 2.55-1.477 3.886-1.549 3.942a.615.615 0 0 1-.87-.108.632.632 0 0 1 .116-.88c.012-.01 1.205-.966 1.065-2.848-.186-2.485-2.652-6.67-13.345-12.491-16.374-8.916-29.934 6.07-33.409 10.429 3.69-.29 13.755-.348 24.197 5.983 10.55 6.395 16.242 2.15 17.718.724a33.104 33.104 0 0 0-4.554-3.614l-10.543.542a.616.616 0 0 1-.646-.594.632.632 0 0 1 .595-.658l8.733-.448c-2.771-1.632-6.133-3.185-10.216-4.547a.609.609 0 0 1-.235.08l-4.517.592a.614.614 0 0 1-.69-.54.633.633 0 0 1 .543-.702l2.17-.284a79.341 79.341 0 0 0-2.62-.712.62.62 0 0 1-.443-.76.627.627 0 0 1 .758-.455 75.206 75.206 0 0 1 7.36 2.25l-4.47-4.454a.63.63 0 0 1 .694-1.023c.066.03.128.072.183.126l6.54 6.517c.286.123.574.244.851.368a47.874 47.874 0 0 1 5.381 2.803l-3.834-5.15a.633.633 0 0 1 .127-.879.617.617 0 0 1 .868.119l5.96 8.007c9.454 7.074 9.78 14.66 9.791 15.12a.632.632 0 0 1-.607.646"/>
        <path fill="#D3D801" d="M144.273 11.914s-6.842-2.246-9.407 1.876c-2.565 4.12 5.66 22.156 12.392 22.78 6.732.625 13.34 1.815 19.158-1.073 0 0-8.208-4.544-14.503-16.539 0 0-3.04-5.25-7.64-7.044"/>
        <path fill="#333" d="M141.07.863a.496.496 0 0 1 .168.693c-.038.062-2.144 3.696-.908 9.96.779-.163 2.323-.345 4.217.173 2.438.666 5.945 2.674 8.81 8.46 5.24 10.58 14.507 14.55 14.6 14.589.186.077.305.26.301.462a.522.522 0 0 1-.318.469c-.203.089-19.785 8.347-29.125-5.673-.31-.466-.611-.958-.898-1.475-4.021-7.241-5.253-12.404-3.662-15.348.998-1.848 2.739-2.055 2.813-2.062a.494.494 0 0 1 .55.449.525.525 0 0 1-.468.559c-.012 0-1.258.15-1.995 1.512-.973 1.8-1.127 5.757 3.663 14.382 7.333 13.21 23.314 8.668 27.639 7.144-2.67-1.385-9.631-5.672-14.023-14.542-4.436-8.962-10.239-8.47-11.888-8.118.335 1.375.83 2.862 1.538 4.459l7.504 4.157a.496.496 0 0 1 .182.689.525.525 0 0 1-.701.2l-6.216-3.445c1.187 2.32 2.815 4.84 5.025 7.54a.507.507 0 0 1 .198.044l3.375 1.532c.254.116.36.416.236.671a.527.527 0 0 1-.685.253l-1.621-.737c.474.534.969 1.073 1.489 1.618.192.2.178.522-.03.717a.515.515 0 0 1-.724-.01 60.044 60.044 0 0 1-4.076-4.722l1.108 5.005a.522.522 0 0 1-.392.614.5.5 0 0 1-.61-.37l-1.62-7.322c-.143-.208-.287-.416-.424-.62a38.208 38.208 0 0 1-2.465-4.254l.36 5.213a.526.526 0 0 1-.476.554.5.5 0 0 1-.465-.218.488.488 0 0 1-.08-.238l-.561-8.104c-3.381-8.96-.247-14.35-.05-14.673a.524.524 0 0 1 .705-.187"/>
        <path fill="#D3D801" d="M120.533 152.081s-1.11 4.535-4.324 4.5c-3.215-.034-10.525-10.843-8.539-14.75 1.987-3.908 3.612-7.944 7.26-10.125 0 0-.289 6.087 4.286 13.727 0 0 1.903 3.5 1.317 6.648"/>
        <path fill="#333" d="M126.152 157.403a.33.33 0 0 0-.33-.334c-.047 0-2.807-.117-5.886-2.976.359-.369.993-1.15 1.355-2.365.468-1.565.552-4.181-1.698-7.764-4.116-6.553-3.145-13.002-3.135-13.066a.321.321 0 0 0-.155-.326.349.349 0 0 0-.372.01c-.119.08-11.488 7.903-6.86 17.896.155.331.327.668.517 1.004 2.666 4.723 5.132 7.197 7.327 7.354 1.378.098 2.094-.781 2.124-.818a.319.319 0 0 0-.062-.459.347.347 0 0 0-.474.062c-.005.006-.517.635-1.534.563-1.343-.096-3.61-1.392-6.787-7.017-4.866-8.613 3.182-15.763 5.525-17.595-.146 1.942-.145 7.241 3.307 12.733 3.486 5.55 1.212 8.55.448 9.328a17.556 17.556 0 0 1-1.966-2.395l.258-5.55a.329.329 0 0 0-.322-.34.336.336 0 0 0-.354.314l-.214 4.597c-.89-1.458-1.739-3.226-2.488-5.375a.322.322 0 0 0 .044-.124l.305-2.378a.327.327 0 0 0-.294-.363.339.339 0 0 0-.378.286l-.146 1.143a40.603 40.603 0 0 1-.393-1.378.338.338 0 0 0-.411-.233.328.328 0 0 0-.244.4 38.94 38.94 0 0 0 1.239 3.872l-2.42-2.35a.347.347 0 0 0-.479 0 .32.32 0 0 0-.002.462l3.54 3.439a25.205 25.205 0 0 0 1.732 3.279l-2.793-2.016a.348.348 0 0 0-.475.068.32.32 0 0 0 .067.457l4.342 3.132c3.85 4.971 7.946 5.138 8.195 5.143a.336.336 0 0 0 .347-.32"/>
        <path fill="#D3D801" d="M20.874 109.958s2.741 3.72.73 6.13c-2.01 2.41-14.694 1.076-16.42-2.909-1.727-3.984-3.775-7.776-3.168-11.921 0 0 4.42 4.084 13.021 5.475 0 0 3.82.782 5.837 3.225"/>
        <g transform="rotate(-156 24.581 59.114)">
            <mask id="b" fill="#fff">
                <use xlink:href="#a"/>
            </mask>
            <path fill="#333" d="M.628 14.046a.329.329 0 0 0 .413-.221c.014-.046.852-2.65 4.46-4.797.266.446.864 1.27 1.959 1.955 1.41.883 3.948 1.692 8.047.54 7.496-2.107 13.553.617 13.613.645.12.056.263.034.36-.057a.337.337 0 0 0 .088-.358C29.52 11.617 24.849-1.427 13.85.212c-.365.055-.74.125-1.12.214C7.409 1.658 4.34 3.324 3.61 5.378c-.458 1.29.214 2.218.243 2.257.111.15.32.18.465.07a.338.338 0 0 0 .064-.471c-.005-.007-.486-.672-.148-1.623.447-1.256 2.31-3.061 8.651-4.53 9.71-2.25 14.596 7.433 15.774 10.182-1.863-.68-7.05-2.155-13.334-.388C8.976 12.66 6.637 9.65 6.076 8.704c.82-.441 1.767-.854 2.86-1.212l5.366 1.794a.327.327 0 0 0 .417-.214.34.34 0 0 0-.214-.424L10.06 7.162c1.661-.444 3.615-.763 5.915-.88.031.032.068.058.11.076l2.248.954a.328.328 0 0 0 .433-.18.34.34 0 0 0-.181-.44l-1.08-.458c.471-.005.954-.003 1.452.009a.33.33 0 0 0 .336-.328.338.338 0 0 0-.327-.345 40.207 40.207 0 0 0-4.117.105l2.936-1.657a.337.337 0 0 0 .126-.457.333.333 0 0 0-.452-.132l-4.295 2.425a25.527 25.527 0 0 0-3.664.741l2.705-2.108a.338.338 0 0 0-.255-.6.318.318 0 0 0-.151.065L7.592 7.228C1.715 9.521.476 13.39.406 13.625a.34.34 0 0 0 .222.421" mask="url(#b)"/>
        </g>
        <path fill="#D3D801" d="M21.514 49.03s-4.224-2.002-3.603-5.062c.621-3.059 12.511-7.782 15.963-5.074 3.453 2.708 7.097 5.098 8.558 9.032 0 0-5.89-1.543-14.186 1.232 0 0-3.765 1.087-6.732-.128"/>
        <path fill="#333" d="M15.4 53.295a.324.324 0 0 0 .39-.252c.01-.046.65-2.711 4.04-5.124.294.426.938 1.205 2.062 1.809 1.446.776 3.995 1.397 7.939-.059 7.21-2.662 13.35-.389 13.411-.365.123.047.26.014.35-.084a.343.343 0 0 0 .06-.365c-.056-.132-5.564-12.819-16.246-10.366-.355.082-.718.18-1.084.296-5.14 1.627-8.035 3.52-8.607 5.627-.359 1.323.368 2.2.398 2.237a.32.32 0 0 0 .461.035.344.344 0 0 0 .03-.475c-.005-.006-.524-.635-.26-1.61.35-1.289 2.052-3.232 8.174-5.17 9.375-2.968 14.855 6.344 16.207 9.004-1.878-.541-7.075-1.63-13.12.602-6.106 2.255-8.615-.577-9.233-1.483a17.261 17.261 0 0 1 2.723-1.423l5.395 1.395a.323.323 0 0 0 .394-.245.34.34 0 0 0-.24-.409l-4.469-1.154c1.6-.567 3.495-1.03 5.746-1.318.032.029.07.052.113.067l2.274.787a.322.322 0 0 0 .413-.212.342.342 0 0 0-.21-.426l-1.093-.379c.463-.04.937-.073 1.427-.099a.33.33 0 0 0 .307-.352.334.334 0 0 0-.345-.32 39.049 39.049 0 0 0-4.035.41L31.538 42a.341.341 0 0 0 .09-.466.324.324 0 0 0-.452-.098l-4.046 2.741c-.16.035-.322.068-.478.104-1.13.26-2.146.568-3.068.91l2.508-2.308a.344.344 0 0 0 .024-.475.323.323 0 0 0-.46-.029l-3.899 3.586c-5.61 2.728-6.552 6.685-6.604 6.926a.34.34 0 0 0 .248.404"/>
    </g>
</svg>
