<svg xmlns="http://www.w3.org/2000/svg" width="4.311" height="4.332" viewBox="0 0 4.311 4.332">
  <g id="close_x" data-name="close x" transform="translate(-1265.398 -97.396)">
    <path id="Path_27" data-name="Path 27" d="M8112.813,20424.518l3.3-3.33" transform="translate(-6846.914 -20323.289)" fill="none" stroke="#707070" stroke-linecap="round" stroke-width="1"/>
    <path id="Path_28" data-name="Path 28" d="M0,3.309,3.288,0" transform="translate(1269.209 97.898) rotate(90)" fill="none" stroke="#707070" stroke-linecap="round" stroke-width="1"/>
  </g>
</svg>
