<svg xmlns="http://www.w3.org/2000/svg" xmlns:xlink="http://www.w3.org/1999/xlink" width="652.094" height="201.528" viewBox="0 0 652.094 201.528">
  <defs>
    <clipPath id="clip-path">
      <path id="Clip_14" data-name="Clip 14" d="M0,1.965V0H-13.591V1.965Z" transform="translate(0 -0.015) rotate(180)" fill="none"/>
    </clipPath>
  </defs>
  <g id="Group_44" data-name="Group 44" transform="translate(73.051 -68.48)">
    <text id="Gizlilik_Politikası" data-name="Gizlilik Politikası" transform="translate(258 191)" fill="#fff" font-size="70" font-family="Roboto-Black, Roboto" font-weight="800"><tspan x="-266.55" y="0">Gizlilik Politikası</tspan></text>
    <g id="Sun" transform="translate(12.797 50.703) rotate(149)">
      <path id="Fill_1" data-name="Fill 1" d="M-64.6,33.366c0,18.427,14.46,33.365,32.3,33.365S0,51.793,0,33.366-14.46,0-32.3,0-64.6,14.938-64.6,33.366" transform="translate(18.151 -13.88) rotate(180)" fill="#ffde00"/>
      <path id="Fill_3" data-name="Fill 3" d="M-33.366,66.731A33.4,33.4,0,0,0,0,33.366,33.4,33.4,0,0,0-33.366,0,33.4,33.4,0,0,0-66.731,33.366,33.4,33.4,0,0,0-33.366,66.731Zm0-65.509A32.18,32.18,0,0,1-1.222,33.366,32.18,32.18,0,0,1-33.366,65.509,32.179,32.179,0,0,1-65.508,33.366,32.179,32.179,0,0,1-33.366,1.222Z" transform="translate(17.083 -13.88) rotate(180)" fill="#333"/>
      <path id="Fill_5" data-name="Fill 5" d="M-1.3,6.932h0c.508.085.969-.5,1.023-1.288L-.005,1.6C.049.811-.323.093-.831.008S-1.8.5-1.854,1.3L-2.13,5.335c-.054.794.317,1.512.826,1.6" transform="translate(28.828 -44.843) rotate(180)" fill="#333"/>
      <path id="Fill_7" data-name="Fill 7" d="M-1.3,6.932h0c.508.085.969-.5,1.023-1.289L-.005,1.6C.049.811-.323.093-.831.008S-1.8.5-1.854,1.3L-2.13,5.335c-.054.793.317,1.512.826,1.6" transform="translate(64.596 -35.768) rotate(180)" fill="#333"/>
      <path id="Fill_9" data-name="Fill 9" d="M-9.315,9.075c5.926,0,9.1-4.937,9.231-5.152A.557.557,0,0,0-.2,3.2a.436.436,0,0,0-.647.127c-.031.05-3.193,4.943-8.9,4.7s-9.1-7.669-9.13-7.744A.443.443,0,0,0-19.5.055.547.547,0,0,0-19.7.75a19.8,19.8,0,0,0,2.571,4.036c2.214,2.688,4.757,4.168,7.354,4.279.156.007.31.01.462.01" transform="translate(40.039 -44.843) rotate(180)" fill="#333"/>
      <g id="Group_15" data-name="Group 15" transform="translate(0 -46.979)">
        <path id="Clip_14-2" data-name="Clip 14" d="M0,1.965V0H-13.591V1.965Z" transform="translate(0 -0.015) rotate(180)" fill="none"/>
        <g id="Group_15-2" data-name="Group 15" clip-path="url(#clip-path)">
          <path id="Fill_13" data-name="Fill 13" d="M-.99,1.965c.5,0,.935-.242.985-.565C.048,1.057-.35.751-.9.718L-12.5,0c-.542-.035-1.029.218-1.083.562s.345.649.89.683l11.609.714c.032,0,.065,0,.1,0" transform="translate(0 -0.015) rotate(180)" fill="#333"/>
        </g>
      </g>
      <path id="Fill_16" data-name="Fill 16" d="M-10.85,6.94a.825.825,0,0,0,.374-.09l9.957-5A1.008,1.008,0,0,0-.083.565.864.864,0,0,0-1.268.09l-9.957,5a1.009,1.009,0,0,0-.437,1.289.892.892,0,0,0,.812.565" transform="translate(2.135 -28.828) rotate(180)" fill="#333"/>
      <path id="Fill_18" data-name="Fill 18" d="M-6.131,9.075a.8.8,0,0,0,.651-.338l5.32-7.4A.854.854,0,0,0-.327.165.793.793,0,0,0-1.46.338l-5.321,7.4a.854.854,0,0,0,.168,1.169.79.79,0,0,0,.482.165" transform="translate(13.88 -16.015) rotate(180)" fill="#333"/>
      <path id="Fill_20" data-name="Fill 20" d="M-3.815,9.075a.989.989,0,0,0,.941-.58l2.826-7.4A.817.817,0,0,0-.686.04,1.037,1.037,0,0,0-1.931.579l-2.826,7.4a.817.817,0,0,0,.638,1.052,1.161,1.161,0,0,0,.3.041" transform="translate(30.963 -2.135) rotate(180)" fill="#333"/>
      <path id="Fill_22" data-name="Fill 22" d="M-1.068,9.075C-.478,9.075,0,8.728,0,8.3V.775C0,.347-.478,0-1.068,0S-2.135.347-2.135.775V8.3c0,.428.478.775,1.068.775" transform="translate(52.851) rotate(180)" fill="#333"/>
      <path id="Fill_24" data-name="Fill 24" d="M-.934,6.94a.989.989,0,0,0,.433-.1A.838.838,0,0,0-.107,5.67L-3.043.465A.971.971,0,0,0-4.3.1.838.838,0,0,0-4.7,1.27l2.936,5.2a.947.947,0,0,0,.828.465" transform="translate(68.866 -9.075) rotate(180)" fill="#333"/>
      <path id="Fill_26" data-name="Fill 26" d="M-.76,6.94A.72.72,0,0,0-.166,6.6,1.016,1.016,0,0,0-.285,5.338L-5.707.2A.682.682,0,0,0-6.773.338,1.016,1.016,0,0,0-6.655,1.6l5.422,5.141a.686.686,0,0,0,.474.2" transform="translate(80.611 -16.015) rotate(180)" fill="#333"/>
      <path id="Fill_28" data-name="Fill 28" d="M-.98,4.8a.983.983,0,0,0,.9-.562A.919.919,0,0,0-.589,3.013C-.858,2.9-7.208.28-10.685,0a.968.968,0,0,0-1.057.853.949.949,0,0,0,.894,1.009c3.155.251,9.415,2.836,9.478,2.862A1.018,1.018,0,0,0-.98,4.8" transform="translate(85.95 -28.828) rotate(180)" fill="#333"/>
      <path id="Fill_30" data-name="Fill 30" d="M-6.157,2.135H-.783c.433,0,.783-.478.783-1.068S-.351,0-.783,0H-6.157c-.433,0-.783.478-.783,1.068s.351,1.068.783,1.068" transform="translate(90.754 -44.843) rotate(180)" fill="#333"/>
      <path id="Fill_32" data-name="Fill 32" d="M-6.2,6.94a.636.636,0,0,0,.434-.18L-.3,1.689A1.107,1.107,0,0,0-.142.383.641.641,0,0,0-1.17.18L-6.638,5.251A1.107,1.107,0,0,0-6.8,6.557.7.7,0,0,0-6.2,6.94" transform="translate(85.95 -64.596) rotate(180)" fill="#333"/>
      <path id="Fill_34" data-name="Fill 34" d="M-6.006,6.94a.912.912,0,0,0,.642-.266l5.072-5A1,1,0,0,0-.256.3.909.909,0,0,0-1.577.266l-5.072,5a1,1,0,0,0-.035,1.374.915.915,0,0,0,.678.3" transform="translate(80.611 -75.806) rotate(180)" fill="#333"/>
      <path id="Fill_36" data-name="Fill 36" d="M-4.041,9.075A.741.741,0,0,0-3.4,8.6L-.124,1.638A1.325,1.325,0,0,0-.347.172C-.7-.147-1.174-.009-1.4.48L-4.68,7.438A1.324,1.324,0,0,0-4.458,8.9a.618.618,0,0,0,.417.172" transform="translate(64.596 -83.814) rotate(180)" fill="#333"/>
      <path id="Fill_38" data-name="Fill 38" d="M-1.637,9.075c.211,0,.407-.269.474-.69L-.024,1.3A1.36,1.36,0,0,0-.347.048C-.609-.12-.889.169-.973.691L-2.112,7.78a1.359,1.359,0,0,0,.323,1.247.278.278,0,0,0,.152.048" transform="translate(50.716 -86.483) rotate(180)" fill="#333"/>
      <path id="Fill_40" data-name="Fill 40" d="M-1.068,9.075A.973.973,0,0,0,0,8.24V.836A.973.973,0,0,0-1.068,0,.973.973,0,0,0-2.135.836v7.4a.973.973,0,0,0,1.068.836" transform="translate(37.903 -86.483) rotate(180)" fill="#333"/>
    </g>
    <g id="Clouds" transform="translate(105 127)">
      <g id="Cloud" transform="translate(125 100)">
        <path id="Fill_1-2" data-name="Fill 1" d="M0,38.938s63.421,8.85,91.609-3.54c0,0,3.523-24.779-10.57-24.779S68.706,26.549,68.706,26.549,66.945,0,45.8,0,29.949,30.088,29.949,30.088s-5.285-8.85-17.617-8.85S0,38.938,0,38.938" fill="#fff"/>
        <path id="Stroke_3" data-name="Stroke 3" d="M0,38.938s63.421,8.85,91.609-3.54c0,0,3.523-24.779-10.57-24.779S68.706,26.549,68.706,26.549,66.945,0,45.8,0,29.949,30.088,29.949,30.088s-5.285-8.85-17.617-8.85S0,38.938,0,38.938Z" fill="none" stroke="#333" stroke-linejoin="round" stroke-miterlimit="10" stroke-width="2"/>
        <path id="Fill_5-2" data-name="Fill 5" d="M3,1.5A1.5,1.5,0,1,1,1.5,0,1.5,1.5,0,0,1,3,1.5" transform="translate(32 16)" fill="#333"/>
        <path id="Fill_7-2" data-name="Fill 7" d="M3,1.5A1.5,1.5,0,1,1,1.5,0,1.5,1.5,0,0,1,3,1.5" transform="translate(56 15)" fill="#333"/>
        <path id="Fill_9-2" data-name="Fill 9" d="M3.564,6C1.548,6,.192,3.569.133,3.462A1.111,1.111,0,0,1,.354,2.115a.717.717,0,0,1,1.11.263c.272.493,1.227,1.728,2.2,1.67C4.6,3.972,5.572,2.758,6.484.537A.741.741,0,0,1,7.557.1,1.082,1.082,0,0,1,7.916,1.41c-1.2,2.922-2.6,4.465-4.162,4.582C3.69,6,3.628,6,3.564,6" transform="translate(40 18)" fill="#333"/>
      </g>
      <g id="Cloud-2" data-name="Cloud" transform="translate(473 -12) rotate(180)">
        <path id="Fill_1-3" data-name="Fill 1" d="M-34.131,20.04s-5-21.005,9.005-20,9.005,19,9.005,19,1-9,9.005-9,8,8,6,13c0,0-26.015,6-33.02-3" transform="translate(0 0) rotate(180)" fill="#fff"/>
        <path id="Stroke_3-2" data-name="Stroke 3" d="M-34.131,20.04s-5-21.005,9.005-20,9.005,19,9.005,19,1-9,9.005-9,8,8,6,13C-1.112,23.04-27.127,29.042-34.131,20.04Z" transform="translate(0 0) rotate(180)" fill="none" stroke="#333" stroke-linecap="round" stroke-linejoin="round" stroke-miterlimit="10" stroke-width="2"/>
        <path id="Fill_5-3" data-name="Fill 5" d="M-2.258,1.136A1.133,1.133,0,0,0-1.129,2.273,1.133,1.133,0,0,0,0,1.136,1.133,1.133,0,0,0-1.129,0,1.133,1.133,0,0,0-2.258,1.136" transform="translate(20.323 -7.955) rotate(180)" fill="#333"/>
        <path id="Fill_7-3" data-name="Fill 7" d="M-2.258,1.136A1.133,1.133,0,0,0-1.129,2.273,1.133,1.133,0,0,0,0,1.136,1.133,1.133,0,0,0-1.129,0,1.133,1.133,0,0,0-2.258,1.136" transform="translate(27.097 -6.818) rotate(180)" fill="#333"/>
        <path id="Fill_9-3" data-name="Fill 9" d="M-3.155,2.273A4.73,4.73,0,0,0-.1.7.388.388,0,0,0-.236.084a.668.668,0,0,0-.787.1A3.486,3.486,0,0,1-3.257,1.379C-3.745,1.337-4.184.964-4.562.27A.626.626,0,0,0-5.3.037.416.416,0,0,0-5.6.62,2.79,2.79,0,0,0-3.378,2.263c.075.007.149.01.222.01" transform="translate(22.581 -10.227) rotate(180)" fill="#333"/>
      </g>
    </g>
    <g id="Cloud-3" data-name="Cloud" transform="translate(-72 178)">
      <path id="Fill_1-4" data-name="Fill 1" d="M40.958,24.048s6-25.206-10.806-24.006S19.345,22.847,19.345,22.847s-1.2-10.8-10.806-10.8-9.606,9.6-7.2,15.6c0,0,31.219,7.2,39.624-3.6" transform="translate(0 0)" fill="#fff"/>
      <path id="Stroke_3-3" data-name="Stroke 3" d="M40.958,24.048s6-25.206-10.806-24.006S19.345,22.847,19.345,22.847s-1.2-10.8-10.806-10.8-9.606,9.6-7.2,15.6C1.334,27.648,32.553,34.85,40.958,24.048Z" transform="translate(0 0)" fill="none" stroke="#333" stroke-linecap="round" stroke-linejoin="round" stroke-miterlimit="10" stroke-width="2"/>
      <path id="Fill_5-4" data-name="Fill 5" d="M2,1A1,1,0,1,1,1,0,1,1,0,0,1,2,1" transform="translate(25 9)" fill="#333"/>
      <path id="Fill_7-4" data-name="Fill 7" d="M2,1A1,1,0,1,1,1,0,1,1,0,0,1,2,1" transform="translate(32 9)" fill="#333"/>
      <path id="Fill_9-4" data-name="Fill 9" d="M3.913,3C1.954,3,.318,1.149.13.929A.529.529,0,0,1,.292.111a.791.791,0,0,1,.976.135c.378.44,1.7,1.682,2.771,1.575.6-.055,1.149-.548,1.618-1.464A.752.752,0,0,1,6.576.048a.556.556,0,0,1,.368.77A3.483,3.483,0,0,1,4.189,2.987,2.73,2.73,0,0,1,3.913,3" transform="translate(27 13)" fill="#333"/>
    </g>
  </g>
</svg>
