<?xml version="1.0" encoding="UTF-8"?>
<svg width="62px" height="60px" viewBox="0 0 62 60" version="1.1" xmlns="http://www.w3.org/2000/svg" xmlns:xlink="http://www.w3.org/1999/xlink">
    <!-- Generator: Sketch 53.2 (72643) - https://sketchapp.com -->
    <title>Callendar Check</title>
    <desc>Created with Sketch.</desc>
    <g id="Abonelik" stroke="none" stroke-width="1" fill="none" fill-rule="evenodd">
        <g id="Abonelik-Desktop-HD" transform="translate(-194.000000, -1502.000000)">
            <g id="Abonelik" transform="translate(-72.000000, 701.000000)">
                <g id="Gönderim-Zamanı" transform="translate(237.000000, 684.000000)">
                    <g id="Content" transform="translate(0.000000, 80.000000)">
                        <g id="Callendar-Check" transform="translate(29.000000, 37.000000)">
                            <g id="Callendar" fill="#8D8D8D" fill-rule="nonzero">
                                <path d="M46.6642222,5.33577778 L37.6797778,5.33577778 L37.6797778,1.742 C37.6797778,1.24511111 37.2782222,0.843555556 36.7813333,0.843555556 C36.2844444,0.843555556 35.8828889,1.24511111 35.8828889,1.742 L35.8828889,9.828 C35.8828889,10.3248889 36.2844444,10.7264444 36.7813333,10.7264444 C37.2782222,10.7264444 37.6797778,10.3248889 37.6797778,9.828 L37.6797778,7.13266667 L46.6642222,7.13266667 C48.152,7.13266667 49.3595556,8.34311111 49.3595556,9.828 L49.3595556,17.914 L2.64044444,17.914 L2.64044444,9.828 C2.64044444,8.34022222 3.85088889,7.13266667 5.33577778,7.13266667 L12.5233333,7.13266667 L12.5233333,5.33577778 L5.33577778,5.33577778 C2.86,5.33577778 0.843555556,7.35222222 0.843555556,9.828 L0.843555556,46.6642222 C0.843555556,49.14 2.86,51.1564444 5.33577778,51.1564444 L46.6671111,51.1564444 C49.1428889,51.1564444 51.1593333,49.14 51.1593333,46.6642222 L51.1593333,9.828 C51.1564444,7.34933333 49.1428889,5.33577778 46.6642222,5.33577778 Z M49.3595556,46.6642222 C49.3595556,48.152 48.1491111,49.3595556 46.6642222,49.3595556 L5.33577778,49.3595556 C3.848,49.3595556 2.64044444,48.1491111 2.64044444,46.6642222 L2.64044444,19.7108889 L49.3624444,19.7108889 L49.3624444,46.6642222 L49.3595556,46.6642222 Z" id="Shape"></path>
                                <path d="M15.2186667,10.7264444 C15.7155556,10.7264444 16.1171111,10.3248889 16.1171111,9.828 L16.1171111,7.13266667 L34.086,7.13266667 L34.086,5.33577778 L16.1171111,5.33577778 L16.1171111,1.742 C16.1171111,1.24511111 15.7155556,0.843555556 15.2186667,0.843555556 C14.7217778,0.843555556 14.3202222,1.24511111 14.3202222,1.742 L14.3202222,9.828 C14.3202222,10.3248889 14.7217778,10.7264444 15.2186667,10.7264444 Z" id="Shape"></path>
                            </g>
                            <g id="Check" transform="translate(30.000000, 28.000000)">
                                <g>
                                    <circle id="Oval-2" fill="#CFD330" cx="16" cy="16" r="16"></circle>
                                    <g transform="translate(9.000000, 9.000000)" fill="#FFFFFF" fill-rule="nonzero" id="Shape">
                                        <path d="M14.7860386,0.874417281 C14.4781813,0.884313604 14.1862564,1.01525722 13.9722412,1.23944813 C11.0469768,4.20644694 8.38225775,7.13355831 5.53834054,10.0559915 L1.94098599,7.14520887 C1.61059756,6.87770608 1.16429796,6.8089121 0.770203926,6.96474098 C0.376109892,7.12056985 0.094093685,7.47734746 0.0303880812,7.90067912 C-0.0333175227,8.32401079 0.130965873,8.74958237 0.461354304,9.01708517 L4.90024937,12.6110877 C5.37338527,12.9939843 6.05579296,12.9535954 6.48160574,12.5174938 C9.66249723,9.29127761 12.5231224,6.11039971 15.6553222,2.93348121 C16.0086434,2.58818768 16.1145978,2.05795214 15.9216173,1.60084109 C15.7286369,1.14373005 15.2768088,0.854697983 14.7860386,0.874417281 L14.7860386,0.874417281 Z"></path>
                                    </g>
                                </g>
                            </g>
                        </g>
                    </g>
                </g>
            </g>
        </g>
    </g>
</svg>