<svg xmlns="http://www.w3.org/2000/svg" width="8.376" height="8.376" viewBox="0 0 8.376 8.376">
  <g id="Group_19" data-name="Group 19" transform="translate(-745.5 -413.5)">
    <path id="Path_20" data-name="Path 20" d="M9243.216,15643.473l6.375,6.376" transform="translate(-8496.716 -15228.973)" fill="none" stroke="#fff" stroke-linecap="round" stroke-width="2"/>
    <path id="Path_21" data-name="Path 21" d="M0,0,6.375,6.376" transform="translate(752.876 414.5) rotate(90)" fill="none" stroke="#fff" stroke-linecap="round" stroke-width="2"/>
  </g>
</svg>
