<?xml version="1.0" encoding="UTF-8"?>
<svg width="40px" height="50px" viewBox="0 0 40 50" version="1.1" xmlns="http://www.w3.org/2000/svg" xmlns:xlink="http://www.w3.org/1999/xlink">
    <!-- Generator: Sketch 53.2 (72643) - https://sketchapp.com -->
    <title>help-invoice</title>
    <desc>Created with Sketch.</desc>
    <g id="Yardım" stroke="none" stroke-width="1" fill="none" fill-rule="evenodd">
        <g id="Yardım-Desktop-HD" transform="translate(-1024.000000, -260.000000)" fill="#CFD330" fill-rule="nonzero">
            <g id="help-invoice" transform="translate(1024.000000, 260.000000)">
                <path d="M39.1769275,13.818253 C37.7594786,12.3913999 36.3420297,10.9645468 34.9303428,9.54349386 C32.5506421,7.14800468 30.1709413,4.75251549 27.7912406,2.35702631 C27.168946,1.73060299 26.5408894,1.09837946 25.9185947,0.471956135 C25.6477813,0.199345986 25.319348,0.0195392923 24.9275329,0.0137390764 C24.6624815,0.00793886046 24.4031921,0.00213864452 24.1381407,0.00213864452 L6.27598007,0.00213864452 C5.37711005,0.00213864452 4.46095407,-0.038462867 3.59089399,0.234147282 C1.43591075,0.90697233 0.00693790306,2.93124769 0.00117591577,5.18753169 C-0.00458607151,6.62598524 0.0126998903,8.06443879 0.0126998903,9.50289235 L0.0126998903,44.4781944 C0.0126998903,45.568635 0.156749572,46.6358748 0.744472276,47.58131 C1.48776864,48.7819547 2.7265959,49.6809881 4.12099682,49.918797 C4.50704997,49.9825994 4.88157915,50 5.26763229,50 L33.8528512,50 C34.855437,50 35.8119269,49.9419978 36.7511308,49.5127819 C38.5834428,48.6717506 39.6551724,46.7634795 39.6551724,44.7798057 L39.6551724,14.7520878 C39.6551724,14.3924744 39.4650268,14.032861 39.1769275,13.818253 Z M22.1041591,41.2938759 L8.89768428,41.2938759 C7.92967042,41.2938759 7.20942201,40.4934461 7.1690881,39.5538111 C7.12875419,38.6141761 7.99305228,37.8137463 8.89768428,37.8137463 L22.1041591,37.8137463 C23.072173,37.8137463 23.7924214,38.6141761 23.8327553,39.5538111 C23.8788512,40.4934461 23.0087911,41.2938759 22.1041591,41.2938759 Z M30.7240921,33.2895779 C30.7125681,33.2895779 30.6952822,33.2895779 30.6837582,33.2895779 C29.7964122,33.3127788 28.9090661,33.2895779 28.0274821,33.2895779 L8.89768428,33.2895779 C7.92967042,33.2895779 7.20942201,32.4891481 7.1690881,31.5495131 C7.12875419,30.6098781 7.99305228,29.8094483 8.89768428,29.8094483 C8.90920826,29.8094483 8.92649422,29.8094483 8.9380182,29.8094483 C9.82536424,29.7920477 10.7127103,29.8094483 11.5942943,29.8094483 L30.7240921,29.8094483 C31.692106,29.8094483 32.4123544,30.6040779 32.4526883,31.5495131 C32.4930222,32.4891481 31.6229621,33.2895779 30.7240921,33.2895779 Z M30.7240921,25.2736795 C30.7125681,25.2736795 30.6952822,25.2794797 30.6837582,25.2794797 C29.7964122,25.2968803 28.9090661,25.2852799 28.0274821,25.2852799 L8.89768428,25.2852799 C7.92967042,25.2852799 7.20942201,24.4848501 7.1690881,23.5394149 C7.12875419,22.5997799 7.99305228,21.7935499 8.89768428,21.7935499 C8.90920826,21.7935499 8.92649422,21.7993501 8.9380182,21.7993501 C9.82536424,21.7761493 10.7127103,21.8051503 11.5942943,21.8051503 L30.7240921,21.8051503 C31.692106,21.8051503 32.4123544,22.5997799 32.4526883,23.5394149 C32.4930222,24.4790499 31.6229621,25.2736795 30.7240921,25.2736795 Z M27.9756242,14.1488653 C27.7970026,14.1488653 27.624143,14.166266 27.4455214,14.1604657 C27.4339974,14.1604657 27.4224734,14.166266 27.4167114,14.166266 C27.3763775,14.166266 27.3360436,14.166266 27.2957097,14.166266 C27.2553758,14.166266 27.2208039,14.1604657 27.1804699,14.1604657 C27.0191343,14.1198642 26.8577987,14.0792627 26.702225,14.0270608 C26.684939,14.0212606 26.6618911,14.0096601 26.6446051,13.9980597 C26.5524133,13.951658 26.4659835,13.899456 26.3795537,13.8472541 C26.3737917,13.8414539 26.3392198,13.818253 26.3046479,13.8008524 C26.3046479,13.8008524 26.3046479,13.8008524 26.3104099,13.8066526 C26.3334578,13.8298534 26.3507438,13.8414539 26.3565058,13.8530543 C26.3392198,13.8356536 26.3046479,13.8066526 26.2815999,13.7892519 C26.2873619,13.7950521 26.2988859,13.8008524 26.3046479,13.8066526 C26.241266,13.7486504 26.1778842,13.6906482 26.1145023,13.6326461 C26.0568824,13.5746439 26.0050245,13.5166418 25.9531666,13.4586396 C25.9646906,13.4760403 25.9762146,13.4876407 25.9762146,13.4934409 C25.9704526,13.4876407 25.9589286,13.47024 25.9301187,13.4354387 C25.9301187,13.4354387 25.9301187,13.4354387 25.9301187,13.4296385 C25.9128327,13.4122379 25.9070708,13.3948372 25.9013088,13.3832368 C25.8955468,13.3774366 25.8897848,13.3716364 25.8897848,13.3658362 C25.8436889,13.2904334 25.797593,13.2150305 25.7572591,13.1338275 C25.7399731,13.0990262 25.7226872,13.0642249 25.7054012,13.0294236 C25.6823532,12.9830219 25.6708293,12.959821 25.6650673,12.9540208 C25.6650673,12.9540208 25.7284491,13.0874258 25.7284491,13.093226 C25.6708293,13.0874258 25.6074474,12.716212 25.5843995,12.5770068 C25.5843995,12.582807 25.5843995,12.5944074 25.5843995,12.6060079 C25.5901615,12.7684139 25.5383036,12.3797994 25.5728755,12.5364053 C25.5728755,12.5422055 25.5786375,12.5596061 25.5786375,12.582807 C25.5786375,12.5538059 25.5728755,12.5190046 25.5728755,12.4900036 C25.5728755,12.4320014 25.5671135,12.3797994 25.5671135,12.3275975 C25.5671135,12.3159971 25.5786375,12.3043966 25.5786375,12.2927962 C25.5786375,12.2289938 25.5901615,12.1651915 25.5901615,12.1013891 L25.5901615,6.76519042 C25.5901615,6.04596365 25.5959234,5.32673687 25.6016854,4.6075101 C26.4544595,5.46594205 27.3072337,6.32437401 28.1600078,7.18280597 C30.4705647,9.50869256 32.7811216,11.8345792 35.0916785,14.1604657 L27.9756242,14.1604657 L27.9756242,14.1488653 Z" id="Shape"></path>
            </g>
        </g>
    </g>
</svg>