<?xml version="1.0" encoding="UTF-8"?>
<svg width="17px" height="30px" viewBox="0 0 17 30" version="1.1" xmlns="http://www.w3.org/2000/svg" xmlns:xlink="http://www.w3.org/1999/xlink">
    <!-- Generator: Sketch 53.2 (72643) - https://sketchapp.com -->
    <title>Shape Copy 2</title>
    <desc>Created with Sketch.</desc>
    <g id="Anasayfa" stroke="none" stroke-width="1" fill="none" fill-rule="evenodd">
        <g id="Anasayfa-Desktop-HD-instagram" transform="translate(-906.000000, -173.000000)" fill="#8D8D8D" fill-rule="nonzero">
            <path d="M922.353205,173.563872 C921.992587,173.202853 921.503243,173 920.992967,173 C920.482692,173 919.993348,173.202853 919.63273,173.563872 L906.563872,186.623117 C906.202853,186.983735 906,187.473079 906,187.983354 C906,188.49363 906.202853,188.982974 906.563872,189.343592 L919.63273,202.402837 C920.114367,202.90888 920.832604,203.113839 921.508772,202.93819 C922.184939,202.762541 922.712616,202.23393 922.887069,201.557453 C923.061521,200.880976 922.855293,200.163103 922.348399,199.682361 L910.639779,187.983354 L922.348399,176.284348 C922.710056,175.924368 922.913774,175.435382 922.914675,174.925106 C922.915577,174.414831 922.713589,173.925128 922.353205,173.563872 Z" id="Shape-Copy-2" transform="translate(914.474014, 188.000000) rotate(-180.000000) translate(-914.474014, -188.000000) "></path>
        </g>
    </g>
</svg>