<?xml version="1.0" encoding="UTF-8"?>
<svg width="26px" height="32px" viewBox="0 0 26 32" version="1.1" xmlns="http://www.w3.org/2000/svg" xmlns:xlink="http://www.w3.org/1999/xlink">
    <!-- Generator: Sketch 53.2 (72643) - https://sketchapp.com -->
    <title>konspet</title>
    <desc>Created with Sketch.</desc>
    <g id="Ürünlerimiz" stroke="none" stroke-width="1" fill="none" fill-rule="evenodd">
        <g id="Desktop" transform="translate(-298.000000, -423.000000)" fill="#FFFFFF">
            <g id="Ürün" transform="translate(260.000000, 299.000000)">
                <g id="Group-22" transform="translate(26.000000, 115.000000)">
                    <g id="0-Konsept_ico">
                        <g id="konspet" transform="translate(12.000000, 9.000000)">
                            <path d="M10.5473739,9.97224348 C10.5473739,12.5543304 8.44685217,14.6558957 5.86424348,14.6558957 C3.28163478,14.6558957 1.18111304,12.5543304 1.18111304,9.97224348 C1.18111304,7.39015652 3.28163478,5.2885913 5.86424348,5.2885913 C8.44685217,5.2885913 10.5473739,7.39015652 10.5473739,9.97224348 M11.7285913,9.93937391 C11.7285913,6.70511304 9.09850435,4.07502609 5.86424348,4.07502609 C2.63050435,4.07502609 -0.000104347826,6.70511304 -0.000104347826,9.93937391 C-0.000104347826,13.173113 2.63050435,15.8037217 5.86424348,15.8037217 C9.09850435,15.8037217 11.7285913,13.173113 11.7285913,9.93937391" id="Fill-1"></path>
                            <path d="M18.4968393,21.6057037 C15.3227321,21.6057037 12.7405893,19.1064444 12.7405893,16.0342222 C12.7405893,12.9614815 15.3227321,10.4622222 18.4968393,10.4622222 C21.6709464,10.4622222 24.2530893,12.9614815 24.2530893,16.0342222 C24.2530893,19.1064444 21.6709464,21.6057037 18.4968393,21.6057037 M18.4968393,9.2882963 C14.6541607,9.2882963 11.5277321,12.3143704 11.5277321,16.0342222 C11.5277321,19.753037 14.6541607,22.7791111 18.4968393,22.7791111 C22.3395179,22.7791111 25.4659464,19.753037 25.4659464,16.0342222 C25.4659464,12.3143704 22.3395179,9.2882963 18.4968393,9.2882963" id="Fill-4"></path>
                            <path d="M15.2798,1.7429 C14.9443385,1.6909 14.6293385,1.8884 14.5614923,2.2014 C14.5060308,2.5134 14.7187231,2.8054 15.0617231,2.8689 C15.0644154,2.8694 15.3196462,2.9069 15.3406462,3.2534 C15.3406462,3.5429 15.6195692,3.7879 15.9496462,3.7879 C16.2086462,3.7879 16.4197231,3.6404 16.5258,3.4124 C16.5263385,3.4334 16.5317231,3.4534 16.5311846,3.4744 C16.5311846,4.5739 15.6039538,5.4354 14.4193385,5.4354 C13.2352615,5.4354 12.3069538,4.5739 12.3069538,3.4744 C12.3069538,2.3749 13.2352615,1.5134 14.4193385,1.5134 C14.8484923,1.5134 15.2663385,1.6334 15.6152615,1.8489 C15.4957231,1.7979 15.3799538,1.7614 15.2798,1.7429 M16.8224923,5.6354 C17.4379538,5.0524 17.7669538,4.2829 17.7502615,3.4744 C17.7502615,1.7689 16.2554923,0.3814 14.4193385,0.3814 C12.5821077,0.3814 11.0884154,1.7689 11.0884154,3.4744 C11.0884154,5.1794 12.5821077,6.5669 14.4193385,6.5669 C15.3347231,6.5669 16.1881846,6.2359 16.8224923,5.6354 Z" id="Fill-7"></path>
                            <path d="M8.77625432,19.2018488 C8.77726996,19.2023568 8.84227097,19.2333401 8.8554743,19.3394961 C8.8554743,19.6340918 9.11903311,19.8824665 9.43032704,19.8824665 C9.58622791,19.8824665 9.72841763,19.8164364 9.82998172,19.7067249 C9.7324802,20.3619464 9.18606541,20.8505689 8.5,20.8505689 C7.74283973,20.8505689 7.14970546,20.2573141 7.14970546,19.5 C7.14970546,18.7431938 7.74283973,18.149939 8.5,18.149939 C8.52082064,18.149939 8.54062563,18.1545104 8.56093845,18.1555262 C8.55433679,18.1600975 8.54671948,18.1606054 8.54011781,18.1656847 C8.4253504,18.2520317 8.34257567,18.3810443 8.31413772,18.5278342 C8.26030875,18.8452865 8.46191347,19.1419139 8.77625432,19.2018488 M11,19.5 C11,18.0981308 9.90209222,17 8.5,17 C7.09790778,17 6,18.0981308 6,19.5 C6,20.9018692 7.09790778,22 8.5,22 C9.87822466,22 11,20.8790126 11,19.5" id="Fill-10"></path>
                            <path d="M15.7721011,26.9655547 C15.7721011,29.0463792 14.0799436,30.7382696 12,30.7382696 C9.92005641,30.7382696 8.2278989,29.0463792 8.2278989,26.9655547 C8.2278989,24.885815 9.92005641,23.1928397 12,23.1928397 C14.0799436,23.1928397 15.7721011,24.885815 15.7721011,26.9655547 M12,22 C9.2431934,22 7,24.2424736 7,26.9997288 C7,29.756984 9.2431934,32 12,32 C14.7568066,32 17,29.756984 17,26.9997288 C17,24.2424736 14.7568066,22 12,22" id="Fill-12"></path>
                            <path d="M19.6200166,11 C19.3315402,11 19.0617422,11.2519517 19,11.6316537 C19,11.9599006 19.220508,12.2686302 19.4731842,12.3236338 L19.5411525,12.3431512 C20.2986623,12.5306364 21.6066638,13.1788502 21.8567458,15.4263071 C21.915375,15.7592855 22.1602686,16 22.4394058,16 L22.6988269,15.9627395 L22.6988269,15.8716584 C22.7797663,15.819612 22.8492912,15.7486397 22.9011754,15.6634729 C22.9852279,15.5233026 23.0168773,15.3582919 22.991454,15.218713 C22.5691164,11.4471256 19.6490717,11 19.6200166,11" id="Fill-14"></path>
                            <path d="M7.65641967,6.0110538 L7.65448083,6.0110538 C7.33069362,5.94718997 7.06022467,6.1653443 7.00787584,6.52874645 C6.95795056,6.88141044 7.14941156,7.21203293 7.46786694,7.28493943 C7.48143886,7.28720009 8.76156164,7.56074075 8.87304526,9.39527169 C8.87304526,9.72306834 9.12412576,10 9.42173856,10 L9.44451999,10 L9.44451999,9.99943483 C9.76782249,9.98700117 10.000484,9.70667851 9.99999924,9.30145402 C9.81387007,6.66890778 7.89392826,6.0110538 7.65641967,6.0110538" id="Fill-16"></path>
                            <path d="M12.5455241,23 C12.2912505,23 12.0538676,23.2395848 12,23.5992425 C12,23.9117688 12.1940148,24.2040959 12.4720267,24.2691822 C12.4848088,24.2714266 13.7812844,24.4964231 13.9944725,26.4551831 C14.0456011,26.7710759 14.2610717,27 14.5062151,27 L14.5285839,27 L14.5285839,26.8788049 L14.5441051,26.9955113 C14.6961214,26.9646514 14.830334,26.8619722 14.913418,26.714967 C14.9873719,26.5825501 15.0143057,26.4260065 14.99285,26.296395 C14.708447,23.3495581 12.5669798,23 12.5455241,23" id="Fill-18"></path>
                        </g>
                    </g>
                </g>
            </g>
        </g>
    </g>
</svg>