<?xml version="1.0" encoding="UTF-8"?>
<svg width="20px" height="36px" viewBox="0 0 20 36" version="1.1" xmlns="http://www.w3.org/2000/svg" xmlns:xlink="http://www.w3.org/1999/xlink">
    <!-- Generator: Sketch 53.1 (72631) - https://sketchapp.com -->
    <title>Shape Copy 2</title>
    <desc>Created with Sketch.</desc>
    <g id="Anasayfa" stroke="none" stroke-width="1" fill="none" fill-rule="evenodd">
        <g id="Anasayfa-Desktop-HD" transform="translate(-108.000000, -1988.000000)" fill="#FFFFFF" fill-rule="nonzero">
            <g id="Abone" transform="translate(-71.000000, 1501.000000)">
                <g id="Group-9" transform="translate(0.000000, 263.000000)">
                    <g id="Arrow" transform="translate(71.000000, 0.000000)">
                        <g id="LeftGreenArrow_ico" transform="translate(78.000000, 202.000000)">
                            <path d="M49.2980637,22.6654134 C48.8725059,22.2393819 48.2950412,22 47.6928765,22 C47.0907118,22 46.5132471,22.2393819 46.0876893,22.6654134 L30.6654134,38.0763452 C30.2393819,38.501903 30,39.0793677 30,39.6815324 C30,40.2836971 30.2393819,40.8611618 30.6654134,41.2867196 L46.0876893,56.6976514 C46.6560595,57.2948227 47.503635,57.5366895 48.3015658,57.3294102 C49.0994965,57.1221308 49.7221963,56.4983289 49.9280643,55.7000328 C50.1339324,54.9017368 49.8905671,54.0545903 49.2923917,53.487277 L35.4753031,39.6815324 L49.2923917,25.8757879 C49.719176,25.4509832 49.9595787,24.8739413 49.9606426,24.2717763 C49.9617065,23.6696113 49.7233443,23.0917235 49.2980637,22.6654134 Z" id="Shape-Copy-2"></path>
                        </g>
                    </g>
                </g>
            </g>
        </g>
    </g>
</svg>