<?xml version="1.0" encoding="UTF-8"?>
<svg width="1440px" height="88px" viewBox="0 0 1440 88" version="1.1" xmlns="http://www.w3.org/2000/svg" xmlns:xlink="http://www.w3.org/1999/xlink">
    <!-- Generator: Sketch 53.2 (72643) - https://sketchapp.com -->
    <title>Combined Shape</title>
    <desc>Created with Sketch.</desc>
    <defs>
        <path d="M1.00866466,0 C46.0079718,0 46.0079718,17.2621423 91.0078418,17.2621423 C136.006024,17.2621423 136.006024,0 181.004768,0 C226.003512,0 226.003512,17.2621423 271.002257,17.2621423 C316.002127,17.2621423 316.002127,0 361.001997,0 C406.001304,0 406.001304,17.2621423 451.000611,17.2621423 C495.999918,17.2621423 495.999918,0 540.999226,0 C585.999095,0 585.999095,17.2621423 630.998403,17.2621423 C675.998273,17.2621423 675.998273,0 720.99758,0 C765.99745,0 765.99745,17.2621423 810.99732,17.2621423 C855.997189,17.2621423 855.997189,0 900.996497,0 C945.995241,0 945.995241,17.2621423 990.994548,17.2621423 C1035.99386,17.2621423 1035.99386,0 1080.99316,0 C1125.9936,0 1125.9936,17.2621423 1170.99347,17.2621423 C1215.99334,17.2621423 1215.99334,0 1260.99264,0 C1305.99476,0 1305.99476,17.2621423 1350.99688,17.2621423 C1395.99788,17.2621423 1395.99788,0 1441,0 L1441,88 L0,88 L1.00866466,0 Z" id="path-1"></path>
    </defs>
    <g id="Bize-Ulaşın" stroke="none" stroke-width="1" fill="none" fill-rule="evenodd">
        <g id="Bize-Ulaşın-Desktop-HD" transform="translate(0.000000, -476.000000)">
            <g id="Group-17" transform="translate(-1.000000, 476.000000)">
                <mask id="mask-2" fill="white">
                    <use xlink:href="#path-1"></use>
                </mask>
                <use id="Combined-Shape" fill="#FFFFFF" transform="translate(720.500000, 44.000000) rotate(-180.000000) translate(-720.500000, -44.000000) " xlink:href="#path-1"></use>
            </g>
        </g>
    </g>
</svg>