<?xml version="1.0" encoding="UTF-8"?>
<svg width="19px" height="19px" viewBox="0 0 19 19" version="1.1" xmlns="http://www.w3.org/2000/svg" xmlns:xlink="http://www.w3.org/1999/xlink">
    <!-- Generator: Sketch 53.2 (72643) - https://sketchapp.com -->
    <title>noun_Plus_2275808</title>
    <desc>Created with Sketch.</desc>
    <g id="Ödeme-Yöntemi-Kart-Ekleme" stroke="none" stroke-width="1" fill="none" fill-rule="evenodd">
        <g id="Ödeme-Yöntemi-Kart-Ekleme-Desktop-HD" transform="translate(-466.000000, -623.000000)" fill="#5B5B5B" fill-rule="nonzero">
            <g id="noun_Plus_2275808" transform="translate(462.000000, 619.000000)">
                <path d="M16.3470641,3.93502884 L16.3470641,10.5229936 L22.9350288,10.5229936 L22.9350288,16.3470641 L16.3470641,16.3470641 L16.3470641,22.9350288 L10.5229936,22.9350288 L10.5229936,16.3470641 C8.32617324,16.3470641 6.13184923,16.3470641 3.93502884,16.3470641 L3.93502884,10.5229936 C6.13184923,10.5229936 8.32617324,10.5229936 10.5229936,10.5229936 L10.5229936,3.93502884 L16.3470641,3.93502884 Z" id="Shape" transform="translate(13.435029, 13.435029) rotate(-315.000000) translate(-13.435029, -13.435029) "></path>
            </g>
        </g>
    </g>
</svg>