<?xml version="1.0" encoding="UTF-8"?>
<svg width="19px" height="19px" viewBox="0 0 19 19" version="1.1" xmlns="http://www.w3.org/2000/svg" xmlns:xlink="http://www.w3.org/1999/xlink">
    <!-- Generator: Sketch 53.2 (72643) - https://sketchapp.com -->
    <title>noun_Plus_2275808</title>
    <desc>Created with Sketch.</desc>
    <g id="Ödeme-Yöntemi" stroke="none" stroke-width="1" fill="none" fill-rule="evenodd">
        <g id="Ödeme-yontemi-Desktop-HD" transform="translate(-466.000000, -623.000000)" fill="#FFFFFF" fill-rule="nonzero">
            <g id="noun_Plus_2275808" transform="translate(466.000000, 623.000000)">
                <path d="M12.4120352,0 L12.4120352,6.58796479 L19,6.58796479 L19,12.4120352 L12.4120352,12.4120352 L12.4120352,19 L6.58796479,19 L6.58796479,12.4120352 C4.3911444,12.4120352 2.19682039,12.4120352 0,12.4120352 L0,6.58796479 C2.19682039,6.58796479 4.3911444,6.58796479 6.58796479,6.58796479 L6.58796479,0 L12.4120352,0 Z" id="Shape"></path>
            </g>
        </g>
    </g>
</svg>