<svg xmlns="http://www.w3.org/2000/svg" id="noun_Check_1725263" width="101.995" height="107.625" viewBox="0 0 101.995 107.625">
    <defs>
        <style>
            .cls-1{fill:#cfd330}
        </style>
    </defs>
    <g id="Group_4" data-name="Group 4">
        <path id="Path_3" d="M14.453 48.468c9.613 9.613 16.48 19.227 23.346 31.586 32.044-60.426 70.955-87.893 62.715-78.28-26.093 33.419-43.946 67.294-61.342 105.747C29.1 89.21 16.284 64.948.719 59.913c-4.577-4.578 6.409-15.565 13.734-11.445z" class="cls-1" data-name="Path 3" transform="translate(.362 .103)"/>
    </g>
</svg>
