<?xml version="1.0" encoding="UTF-8"?>
<svg width="8px" height="6px" viewBox="0 0 8 6" version="1.1" xmlns="http://www.w3.org/2000/svg" xmlns:xlink="http://www.w3.org/1999/xlink">
    <!-- Generator: Sketch 53.2 (72643) - https://sketchapp.com -->
    <title>Shape</title>
    <desc>Created with Sketch.</desc>
    <g id="Abonelik" stroke="none" stroke-width="1" fill="none" fill-rule="evenodd">
        <g id="Abonelik-Desktop-HD" transform="translate(-364.000000, -1525.000000)" fill="#5B5B5B" fill-rule="nonzero">
            <g id="Abonelik" transform="translate(-72.000000, 701.000000)">
                <g id="Gönderim-Zamanı" transform="translate(237.000000, 684.000000)">
                    <g id="Content" transform="translate(0.000000, 80.000000)">
                        <g id="Takvim" transform="translate(110.000000, 1.000000)">
                            <path d="M89.09265,59.6257143 L92.7802419,64.0742857 C92.8497929,64.1514286 92.9332214,64.1899592 93.0303643,64.1899592 C93.1205684,64.1899592 93.2005684,64.1514286 93.2699561,64.0741224 L96.915997,59.625551 C97.006201,59.5018776 97.0238337,59.3668571 96.9680786,59.22 C96.91265,59.0734694 96.8120786,59 96.6659561,59 L93.7078337,59 L92.2920786,59 L89.3323235,59 C89.1933031,59 89.0927317,59.0734694 89.030201,59.22 C88.9747725,59.3669388 88.9956704,59.5022041 89.09265,59.6257143 Z" id="Shape"></path>
                        </g>
                    </g>
                </g>
            </g>
        </g>
    </g>
</svg>