<?xml version="1.0" encoding="UTF-8"?>
<svg width="62px" height="57px" viewBox="0 0 62 57" version="1.1" xmlns="http://www.w3.org/2000/svg" xmlns:xlink="http://www.w3.org/1999/xlink">
    <!-- Generator: Sketch 53.2 (72643) - https://sketchapp.com -->
    <title>Teslim Tarihi</title>
    <desc>Created with Sketch.</desc>
    <g id="Abonelik" stroke="none" stroke-width="1" fill="none" fill-rule="evenodd">
        <g id="Abonelik-Desktop-HD" transform="translate(-736.000000, -1504.000000)">
            <g id="Abonelik" transform="translate(-72.000000, 701.000000)">
                <g id="Gönderim-Zamanı" transform="translate(237.000000, 684.000000)">
                    <g id="Content" transform="translate(0.000000, 80.000000)">
                        <g id="Tahmini-teslim" transform="translate(571.000000, 39.000000)">
                            <g id="Teslim-Tarihi">
                                <path d="M22.019087,0.0461176471 C21.9287543,0.0599529412 21.8411804,0.0905058824 21.7622935,0.136214235 L13.7650109,4.315626 C13.7526848,4.32139071 13.7403587,4.32715541 13.7286196,4.33349659 L10.5553565,5.972806 L7.89573913,7.35996718 C7.88928261,7.36573188 7.88341304,7.37207306 7.87754348,7.37783776 L0.393847826,11.2690142 C0.375065217,11.2799672 0.356869565,11.2920731 0.338673913,11.3047554 C0.312847826,11.3214731 0.288782609,11.3393436 0.265304348,11.3589436 C0.252391304,11.3704731 0.240652174,11.3825789 0.228913043,11.3946848 C0.222456522,11.4004495 0.216586957,11.4067907 0.210717391,11.4125554 C0.183717391,11.4408025 0.159065217,11.4707155 0.137347826,11.5025944 C0.13728913,11.5083591 0.13728913,11.5147002 0.137347826,11.5204649 C0.10976087,11.5544767 0.0851086957,11.5904485 0.0639782609,11.6285532 C0.0639195652,11.6343179 0.0639195652,11.6406591 0.0639782609,11.6464238 C0.028173913,11.7319144 0.00939130435,11.8242015 0.00880434783,11.9166674 L0.00880434783,11.9887262 L0.00880434783,36.0021851 C0.00880434783,36.2558898 0.151963043,36.5058474 0.375652174,36.6327286 L21.5424783,48.6665521 C21.5483478,48.6728933 21.5548043,48.678658 21.5606739,48.6844227 L21.5788696,48.6844227 C21.614087,48.7057521 21.6507717,48.7236227 21.6889239,48.7386109 C21.742337,48.757058 21.7978043,48.7691639 21.8539761,48.7743521 C21.8721717,48.7812698 21.8903674,48.7870345 21.90915,48.7922227 C21.9150196,48.792338 21.9214761,48.792338 21.9273457,48.7922227 C22.0020065,48.7922227 22.07655,48.7789639 22.1474543,48.7564815 C22.1597804,48.7507168 22.1721065,48.7449521 22.1838457,48.7386109 C22.2026283,48.7328462 22.2208239,48.7270815 22.2390196,48.7207404 C22.2642587,48.7103639 22.2883239,48.698258 22.3123891,48.6849992 L22.3857587,48.649258 C22.3922152,48.6434933 22.3980848,48.6371521 22.4039543,48.6313874 L34.3813891,41.8221168 C35.9095304,45.3788827 39.4661935,47.9021521 43.64415,47.9649874 C49.2734739,48.0497286 53.9029761,43.6275651 53.9892587,38.0929286 C54.0754533,32.5582345 49.5853239,27.9816345 43.9558239,27.8963168 C43.9310712,27.9010298 43.9065822,27.9069946 43.8824543,27.9141874 L43.8824543,12.0791168 C43.9700635,11.7651709 43.8091493,11.4016486 43.5156065,11.2504404 L22.4403457,0.135510941 C22.3341652,0.0778062353 22.2131935,0.0464981176 22.0918696,0.0454085882 L22.0185,0.0454085882 L22.019087,0.0461176471 Z M22.0924565,1.59538235 L41.6639348,11.9176647 L35.3359565,15.5025624 L15.6177391,4.98197412 L22.0924565,1.59520941 L22.0924565,1.59538235 Z M14.0581957,5.79283765 L33.8497826,16.3491671 L29.3926109,18.8712259 L9.74776304,8.02666118 L11.7104283,7.01783765 L14.0582543,5.79283765 L14.0581957,5.79283765 Z M8.20694348,8.83729412 C8.21281304,8.83735176 8.21926957,8.83735176 8.22513913,8.83729412 L27.9433565,19.7003059 L21.9452478,23.1050565 L2.2640087,11.9359388 L8.20694348,8.83740941 L8.20694348,8.83729412 Z M1.47513913,13.1608235 L21.2115522,24.3656824 L21.2115522,46.8122941 L1.47513913,35.5889882 L1.47513913,13.1608235 L1.47513913,13.1608235 Z M42.4153565,13.1608235 L42.4153565,27.9870706 C37.4820457,28.6437859 33.6526826,32.7910882 33.5746174,37.8049412 C33.5604717,38.7143235 33.6854465,39.5947671 33.9047804,40.4350882 L22.679237,46.8120059 L22.679237,24.3653941 L28.4387478,21.0867176 L28.5304304,24.9778941 C28.5439304,25.4816141 29.2127087,25.8370659 29.6493457,25.5724082 L35.6474543,22.1315706 C35.8711493,22.0047471 36.0165972,21.754726 36.0143022,21.5010847 L36.0326152,16.7812318 L42.4157674,13.1602471 L42.4153565,13.1608235 Z M34.564813,17.6284706 L34.5465,21.1053376 L29.9609022,23.7174412 L29.8875326,20.2766612 L34.5648717,17.6284706 L34.564813,17.6284706 Z M43.6808348,27.8965647 C43.3783643,27.9023294 43.0777957,27.9219294 42.782087,27.9507529 C43.0781478,27.9219294 43.3780826,27.8994471 43.6808348,27.8965647 Z M43.7175196,29.3557847 C43.7358457,29.3564607 43.7541912,29.3564607 43.7725174,29.3557847 C43.7847437,29.3560854 43.7969758,29.3560854 43.8092022,29.3557847 C43.8458352,29.3584946 43.8826235,29.3584946 43.9192565,29.3557847 C48.7560717,29.4285929 52.6144304,33.3194235 52.5404739,38.0749024 C52.4664117,42.8303812 48.4812587,46.6147376 43.6445609,46.5421024 C38.8077457,46.4692941 34.9863652,42.56042 35.0603217,37.8051141 C35.1330339,33.1359329 38.9685717,29.4042082 43.7179304,29.3563612 L43.7175196,29.3557847 Z M48.0280109,34.3999024 C47.9970845,34.4039383 47.9664517,34.4099072 47.9362989,34.4177729 C47.7990668,34.442353 47.6718121,34.5048437 47.5694511,34.59792 L41.8099402,39.7140965 L40.1224402,37.7324788 C39.9668786,37.5018143 39.6905907,37.3789845 39.411472,37.4164023 C39.1323532,37.4538202 38.8996891,37.6448785 38.81276,37.9080506 C38.7258309,38.1712227 38.7999865,38.4600388 39.0035837,38.6512576 L41.1863576,41.2093459 C41.314167,41.3567861 41.4970135,41.4475067 41.6936894,41.4610623 C41.8903653,41.474618 42.0843208,41.4098679 42.2318446,41.2814047 L48.5416272,35.6788024 C48.7907087,35.4808227 48.8801767,35.1469973 48.7626182,34.8542346 C48.6450597,34.5614719 48.3476666,34.3774893 48.0280402,34.3997871 L48.0280109,34.3999024 Z" id="Shape" fill="#8D8D8D" fill-rule="nonzero"></path>
                                <g id="Check" transform="translate(30.000000, 25.000000)">
                                    <g>
                                        <circle id="Oval-2" fill="#CFD330" cx="16" cy="16" r="16"></circle>
                                        <g transform="translate(9.000000, 9.000000)" fill="#FFFFFF" fill-rule="nonzero" id="Shape">
                                            <path d="M14.7860386,0.874417281 C14.4781813,0.884313604 14.1862564,1.01525722 13.9722412,1.23944813 C11.0469768,4.20644694 8.38225775,7.13355831 5.53834054,10.0559915 L1.94098599,7.14520887 C1.61059756,6.87770608 1.16429796,6.8089121 0.770203926,6.96474098 C0.376109892,7.12056985 0.094093685,7.47734746 0.0303880812,7.90067912 C-0.0333175227,8.32401079 0.130965873,8.74958237 0.461354304,9.01708517 L4.90024937,12.6110877 C5.37338527,12.9939843 6.05579296,12.9535954 6.48160574,12.5174938 C9.66249723,9.29127761 12.5231224,6.11039971 15.6553222,2.93348121 C16.0086434,2.58818768 16.1145978,2.05795214 15.9216173,1.60084109 C15.7286369,1.14373005 15.2768088,0.854697983 14.7860386,0.874417281 L14.7860386,0.874417281 Z"></path>
                                        </g>
                                    </g>
                                </g>
                            </g>
                        </g>
                    </g>
                </g>
            </g>
        </g>
    </g>
</svg>