<?xml version="1.0" encoding="UTF-8"?>
<svg width="556px" height="139px" viewBox="0 0 556 139" version="1.1" xmlns="http://www.w3.org/2000/svg" xmlns:xlink="http://www.w3.org/1999/xlink">
    <!-- Generator: Sketch 53.2 (72643) - https://sketchapp.com -->
    <title>Header Text</title>
    <desc>Created with Sketch.</desc>
    <defs>
        <polygon id="path-1" points="1.80097349e-15 1.9800442 1.80097349e-15 0.0150163708 13.590831 0.0150163708 13.590831 1.9800442"></polygon>
    </defs>
    <g id="Hikayemiz" stroke="none" stroke-width="1" fill="none" fill-rule="evenodd">
        <g transform="translate(-429.000000, -240.000000)" id="Header-Area">
            <g transform="translate(0.000000, 49.000000)">
                <g id="Header-Text" transform="translate(413.000000, 173.000000)">
                    <path d="M69.5,112.5 L80.9835325,149.077178 C82.1489799,152.789343 85.8162132,155.124715 89.6729353,154.610773 L521.511646,97.0645175 C525.891209,96.4809027 528.968433,92.457452 528.384818,88.0778887 C528.382231,88.0584758 528.379573,88.0390724 528.376844,88.019679 L521.021874,35.7606833 C520.443681,31.652468 516.820895,28.6679239 512.677967,28.886758 L103.5,50.5" id="Path-2" stroke="#FFFFFF" stroke-width="3" stroke-dasharray="12"></path>
                    <g id="Header" transform="translate(101.000000, 17.000000)" fill-rule="nonzero">
                        <path d="M21.9993555,66.9023438 L21.9993555,79.5830078 C21.9993555,82.3173965 21.5322377,84.3396744 20.5979883,85.6499023 C19.6637388,86.9601302 18.2395994,87.6152344 16.3255273,87.6152344 C14.4342418,87.6152344 13.015799,86.9544337 12.0701563,85.6328125 C11.1245135,84.3111913 10.6516992,82.2946099 10.6516992,79.5830078 L10.6516992,44.6513672 C10.6516992,41.9169785 11.1188169,39.889004 12.0530664,38.5673828 C12.9873159,37.2457616 14.4114553,36.5849609 16.3255273,36.5849609 C18.2395994,36.5849609 19.6637388,37.2514582 20.5979883,38.5844727 C21.5322377,39.9174871 21.9993555,41.9397651 21.9993555,44.6513672 L21.9993555,56.4091797 L42.8489648,56.4091797 L42.8489648,44.6513672 C42.8489648,41.9169785 43.3160826,39.889004 44.250332,38.5673828 C45.1845815,37.2457616 46.6087209,36.5849609 48.522793,36.5849609 C50.436865,36.5849609 51.8610044,37.2514582 52.7952539,38.5844727 C53.7295034,39.9174871 54.1966211,41.9397651 54.1966211,44.6513672 L54.1966211,79.5830078 C54.1966211,82.3173965 53.7295034,84.3396744 52.7952539,85.6499023 C51.8610044,86.9601302 50.436865,87.6152344 48.522793,87.6152344 C46.6315075,87.6152344 45.2130646,86.9544337 44.2674219,85.6328125 C43.3217791,84.3111913 42.8489648,82.2946099 42.8489648,79.5830078 L42.8489648,66.9023438 L21.9993555,66.9023438 Z M69.6570508,39.96875 C69.6570508,38.2141839 70.2836721,36.7102927 71.5369336,35.4570312 C72.7901951,34.2037698 74.2940863,33.5771484 76.0486523,33.5771484 C77.7576453,33.5771484 79.2330537,34.1980732 80.4749219,35.4399414 C81.7167901,36.6818096 82.3377148,38.1913974 82.3377148,39.96875 C82.3377148,41.7461026 81.7281832,43.2499938 80.5091016,44.4804688 C79.2900199,45.7109437 77.8032184,46.3261719 76.0486523,46.3261719 C74.2940863,46.3261719 72.7901951,45.7109437 71.5369336,44.4804688 C70.2836721,43.2499938 69.6570508,41.7461026 69.6570508,39.96875 Z M81.4832227,79.4462891 C81.4832227,82.1578912 81.0388912,84.1744726 80.1502148,85.4960938 C79.2615385,86.8177149 77.8943647,87.4785156 76.0486523,87.4785156 C74.2257266,87.4785156 72.8471596,86.8177149 71.9129102,85.4960938 C70.9786607,84.1744726 70.511543,82.1578912 70.511543,79.4462891 L70.511543,57.2636719 C70.511543,54.5976429 70.961571,52.5981512 71.8616406,51.2651367 C72.7617102,49.9321222 74.1573668,49.265625 76.0486523,49.265625 C77.8943647,49.265625 79.2615385,49.9207291 80.1502148,51.230957 C81.0388912,52.5411849 81.4832227,54.5520698 81.4832227,57.2636719 L81.4832227,79.4462891 Z M108.222949,61.9462891 L117.622363,52.2050781 C118.579399,51.2024689 119.519331,50.4505233 120.442188,49.9492188 C121.365044,49.4479142 122.304976,49.1972656 123.262012,49.1972656 C124.583633,49.1972656 125.688765,49.6188109 126.577441,50.4619141 C127.466118,51.3050172 127.910449,52.3076114 127.910449,53.4697266 C127.910449,54.3356163 127.671194,55.2242793 127.192676,56.1357422 C126.714158,57.0472051 126.019178,57.9358681 125.107715,58.8017578 L117.690723,65.6376953 L127.978809,77.7714844 C128.753552,78.6829473 129.306118,79.5545206 129.636523,80.3862305 C129.966929,81.2179404 130.132129,82.1122999 130.132129,83.0693359 C130.132129,84.3225974 129.636528,85.3935502 128.645313,86.2822266 C127.654097,87.1709029 126.429337,87.6152344 124.970996,87.6152344 C123.9456,87.6152344 122.931613,87.3417996 121.929004,86.7949219 C121.017541,86.2480441 120.117485,85.3821674 119.228809,84.1972656 L108.222949,69.5 L108.222949,79.4462891 C108.222949,82.2034643 107.772921,84.254225 106.872852,85.5986328 C105.972782,86.9430406 104.577125,87.6152344 102.68584,87.6152344 C100.840127,87.6152344 99.4615605,86.9259509 98.5500977,85.5473633 C97.6386348,84.1687757 97.1829102,82.1351046 97.1829102,79.4462891 L97.1829102,41.6435547 C97.1829102,38.9319526 97.6329382,36.9096746 98.5330078,35.5766602 C99.4330774,34.2436457 100.817341,33.5771484 102.68584,33.5771484 C104.531552,33.5771484 105.915816,34.2550388 106.838672,35.6108398 C107.761528,36.9666409 108.222949,38.9775257 108.222949,41.6435547 L108.222949,61.9462891 Z M164.733184,83.6503906 C163.662215,84.9947984 162.312131,86.0315719 160.682891,86.7607422 C159.053651,87.4899125 157.327594,87.8544922 155.504668,87.8544922 C150.787848,87.8544922 146.817347,86.003111 143.593047,82.300293 C140.368747,78.597475 138.756621,73.9547805 138.756621,68.3720703 C138.756621,62.8805064 140.420016,58.2549016 143.746855,54.4951172 C147.073695,50.7353328 151.129644,48.8554688 155.914824,48.8554688 C157.783323,48.8554688 159.423932,49.1630829 160.836699,49.7783203 C162.249467,50.3935578 163.548282,51.3961519 164.733184,52.7861328 C165.325634,51.6468042 166.083277,50.7752309 167.006133,50.1713867 C167.928989,49.5675426 168.925887,49.265625 169.996855,49.265625 C171.842568,49.265625 173.209742,49.9150326 174.098418,51.2138672 C174.987094,52.5127018 175.431426,54.5292832 175.431426,57.2636719 L175.431426,79.4462891 C175.431426,82.1578912 174.975701,84.1744726 174.064238,85.4960938 C173.152775,86.8177149 171.796995,87.4785156 169.996855,87.4785156 C168.789167,87.4785156 167.763787,87.1709015 166.920684,86.5556641 C166.07758,85.9404266 165.348421,84.9720118 164.733184,83.6503906 Z M150.172637,68.2353516 C150.172637,70.9469537 150.827741,73.1287352 152.137969,74.7807617 C153.448197,76.4327882 155.174254,77.2587891 157.316191,77.2587891 C159.344196,77.2587891 161.030377,76.4156985 162.374785,74.7294922 C163.719193,73.0432858 164.391387,70.8785939 164.391387,68.2353516 C164.391387,65.6148958 163.730586,63.4900798 162.408965,61.8608398 C161.087344,60.2315999 159.389769,59.4169922 157.316191,59.4169922 C155.242613,59.4169922 153.533646,60.2372965 152.189238,61.8779297 C150.844831,63.5185629 150.172637,65.6376823 150.172637,68.2353516 Z M211.057871,53.6748047 C211.604749,52.1708909 212.271246,51.0600622 213.057383,50.3422852 C213.84352,49.6245081 214.817631,49.265625 215.979746,49.265625 C217.597593,49.265625 218.902104,49.7384393 219.89332,50.684082 C220.884536,51.6297248 221.380137,52.9114502 221.380137,54.5292969 C221.380137,55.0761746 221.317475,55.6173476 221.192148,56.152832 C221.066822,56.6883165 220.964284,57.0642893 220.884531,57.2807617 C220.804778,57.4972342 220.662364,57.8561173 220.457285,58.3574219 L203.640879,98.2792969 C202.957282,99.9655032 202.245212,101.133298 201.504648,101.782715 C200.764085,102.432132 199.869725,102.756836 198.821543,102.756836 C197.158123,102.756836 195.830825,102.272629 194.839609,101.304199 C193.848393,100.33577 193.352793,99.0426513 193.352793,97.4248047 C193.352793,97.0146464 193.364186,96.7070323 193.386973,96.5019531 C193.409759,96.296874 193.472421,95.9778667 193.574961,95.5449219 C193.677501,95.111977 193.762949,94.7929698 193.831309,94.5878906 C193.899668,94.3828115 194.047779,94.0638042 194.275645,93.6308594 L198.821543,83.7871094 L187.678965,57.8105469 C187.519459,57.4003886 187.382741,56.9560571 187.268809,56.4775391 L187.13209,54.734375 C187.13209,53.2076747 187.650477,51.9145561 188.687266,50.8549805 C189.724055,49.7954049 190.982994,49.265625 192.464121,49.265625 C193.740169,49.265625 194.794032,49.6359012 195.625742,50.3764648 C196.457452,51.1170284 197.27206,52.5240782 198.06959,54.5976562 L204.290293,71.2431641 L211.057871,53.6748047 Z M241.318105,64.2363281 L255.878652,64.2363281 C255.878652,63.3704384 255.679273,62.5444375 255.280508,61.7583008 C254.881743,60.972164 254.329177,60.2373081 253.622793,59.5537109 C252.232812,58.3004495 250.603597,57.6738281 248.735098,57.6738281 C246.866599,57.6738281 245.265866,58.2605736 243.932852,59.434082 C242.599837,60.6075905 241.728264,62.2083232 241.318105,64.2363281 Z M241.454824,71.4482422 C241.68269,73.4762471 242.52578,75.0826764 243.984121,76.2675781 C245.442462,77.4524799 247.379291,78.0449219 249.794668,78.0449219 C251.868246,78.0449219 254.175352,77.4467833 256.716055,76.2504883 C259.256757,75.0541932 260.823311,74.4560547 261.415762,74.4560547 C262.737383,74.4560547 263.802639,74.8548137 264.611563,75.6523438 C265.420486,76.4498738 265.824941,77.4752542 265.824941,78.7285156 C265.824941,81.0755326 264.17294,83.2060451 260.868887,85.1201172 C257.564834,87.0341893 253.679781,87.9912109 249.213613,87.9912109 C243.767623,87.9912109 239.22177,86.1341332 235.575918,82.4199219 C231.930066,78.7057106 230.107168,74.0459265 230.107168,68.4404297 C230.107168,62.8121463 231.878797,58.1181829 235.422109,54.3583984 C238.965421,50.598614 243.380254,48.71875 248.666738,48.71875 C253.77093,48.71875 258.043349,50.4903794 261.484121,54.0336914 C264.924894,57.5770034 266.645254,61.8892975 266.645254,66.9707031 C266.645254,68.6113363 266.263585,69.7677375 265.500234,70.4399414 C264.736884,71.1121453 263.295655,71.4482422 261.176504,71.4482422 L241.454824,71.4482422 Z M279.26877,79.4462891 L279.26877,57.2636719 C279.26877,54.5292832 279.718798,52.4899156 280.618867,51.1455078 C281.518937,49.8011 282.9032,49.1289062 284.771699,49.1289062 C285.819882,49.1289062 286.793993,49.4308238 287.694063,50.034668 C288.594132,50.6385121 289.37456,51.5556579 290.035371,52.7861328 C291.1747,51.5328713 292.467818,50.610029 293.914766,50.0175781 C295.361713,49.4251272 297.008018,49.1289062 298.85373,49.1289062 C300.038632,49.1289062 301.149461,49.2314443 302.18625,49.4365234 C303.223039,49.6416026 304.208544,49.9720029 305.142793,50.4277344 C306.965719,51.2708375 308.537969,52.5696527 309.85959,54.3242188 C311.477436,52.501293 313.157921,51.1796916 314.901094,50.359375 C316.644267,49.5390584 318.666544,49.1289062 320.967988,49.1289062 C324.864492,49.1289062 327.917847,50.393542 330.128145,52.9228516 C332.338442,55.4521611 333.443574,59.0182062 333.443574,63.6210938 L333.443574,79.4462891 C333.443574,82.1578912 332.98785,84.1744726 332.076387,85.4960938 C331.164924,86.8177149 329.774964,87.4785156 327.906465,87.4785156 C326.083539,87.4785156 324.716365,86.8291081 323.804902,85.5302734 C322.893439,84.2314388 322.437715,82.2034643 322.437715,79.4462891 L322.437715,66.9707031 C322.437715,64.099595 322.033259,61.9861721 321.224336,60.6303711 C320.415413,59.27457 319.14508,58.5966797 317.413301,58.5966797 C315.499229,58.5966797 314.097876,59.2517838 313.209199,60.5620117 C312.320523,61.8722396 311.876191,63.9628763 311.876191,66.8339844 L311.876191,79.4462891 C311.876191,82.1578912 311.420467,84.1744726 310.509004,85.4960938 C309.597541,86.8177149 308.207581,87.4785156 306.339082,87.4785156 C304.516156,87.4785156 303.137589,86.8177149 302.20334,85.4960938 C301.26909,84.1744726 300.801973,82.1578912 300.801973,79.4462891 L300.801973,66.9707031 C300.801973,64.0312353 300.403214,61.9007228 299.605684,60.5791016 C298.808154,59.2574804 297.554911,58.5966797 295.845918,58.5966797 C293.931846,58.5966797 292.530493,59.2517838 291.641816,60.5620117 C290.75314,61.8722396 290.308809,63.9628763 290.308809,66.8339844 L290.308809,79.4462891 C290.308809,82.1578912 289.853084,84.1744726 288.941621,85.4960938 C288.030158,86.8177149 286.640198,87.4785156 284.771699,87.4785156 C282.948773,87.4785156 281.575903,86.8234115 280.653047,85.5131836 C279.730191,84.2029557 279.26877,82.1806777 279.26877,79.4462891 Z M347.981152,39.96875 C347.981152,38.2141839 348.607774,36.7102927 349.861035,35.4570312 C351.114297,34.2037698 352.618188,33.5771484 354.372754,33.5771484 C356.081747,33.5771484 357.557155,34.1980732 358.799023,35.4399414 C360.040892,36.6818096 360.661816,38.1913974 360.661816,39.96875 C360.661816,41.7461026 360.052285,43.2499938 358.833203,44.4804688 C357.614122,45.7109437 356.12732,46.3261719 354.372754,46.3261719 C352.618188,46.3261719 351.114297,45.7109437 349.861035,44.4804688 C348.607774,43.2499938 347.981152,41.7461026 347.981152,39.96875 Z M359.807324,79.4462891 C359.807324,82.1578912 359.362993,84.1744726 358.474316,85.4960938 C357.58564,86.8177149 356.218466,87.4785156 354.372754,87.4785156 C352.549828,87.4785156 351.171261,86.8177149 350.237012,85.4960938 C349.302762,84.1744726 348.835645,82.1578912 348.835645,79.4462891 L348.835645,57.2636719 C348.835645,54.5976429 349.285673,52.5981512 350.185742,51.2651367 C351.085812,49.9321222 352.481468,49.265625 354.372754,49.265625 C356.218466,49.265625 357.58564,49.9207291 358.474316,51.230957 C359.362993,52.5411849 359.807324,54.5520698 359.807324,57.2636719 L359.807324,79.4462891 Z M397.279473,76.7802734 C399.42141,76.7802734 401.107592,77.235998 402.338066,78.1474609 C403.568541,79.0589238 404.18377,80.3349527 404.18377,81.9755859 C404.18377,83.5934326 403.591328,84.8352821 402.406426,85.7011719 C401.221524,86.5670616 399.478377,87 397.176934,87 L377.113457,87 C374.90316,87 373.382179,86.7379583 372.550469,86.2138672 C371.718759,85.689776 371.30291,84.8125062 371.30291,83.5820312 C371.30291,82.9212207 371.439628,82.2319372 371.713066,81.5141602 C371.986505,80.7963831 372.408051,80.0843134 372.977715,79.3779297 L388.085137,59.7587891 L378.583184,59.7587891 C376.464032,59.7587891 374.777851,59.3144576 373.52459,58.4257812 C372.271328,57.5371049 371.644707,56.3066485 371.644707,54.734375 C371.644707,53.1165284 372.237149,51.8803754 373.422051,51.0258789 C374.606953,50.1713824 376.350099,49.7441406 378.651543,49.7441406 L396.356621,49.7441406 C399.159369,49.7441406 401.016447,49.9947892 401.92791,50.4960938 C402.839373,50.9973983 403.295098,51.8746682 403.295098,53.1279297 C403.295098,53.7887403 403.118504,54.5122031 402.765312,55.2983398 C402.412121,56.0844766 401.836768,56.967443 401.039238,57.9472656 L386.341973,76.7802734 L397.279473,76.7802734 Z" id="Hikayemiz" fill="#48C7F0" transform="translate(207.417734, 68.166992) rotate(-4.000000) translate(-207.417734, -68.166992) "></path>
                        <path d="M18.9993555,63.9023438 L18.9993555,76.5830078 C18.9993555,79.3173965 18.5322377,81.3396744 17.5979883,82.6499023 C16.6637388,83.9601302 15.2395994,84.6152344 13.3255273,84.6152344 C11.4342418,84.6152344 10.015799,83.9544337 9.07015625,82.6328125 C8.1245135,81.3111913 7.65169922,79.2946099 7.65169922,76.5830078 L7.65169922,41.6513672 C7.65169922,38.9169785 8.11881694,36.889004 9.05306641,35.5673828 C9.98731587,34.2457616 11.4114553,33.5849609 13.3255273,33.5849609 C15.2395994,33.5849609 16.6637388,34.2514582 17.5979883,35.5844727 C18.5322377,36.9174871 18.9993555,38.9397651 18.9993555,41.6513672 L18.9993555,53.4091797 L39.8489648,53.4091797 L39.8489648,41.6513672 C39.8489648,38.9169785 40.3160826,36.889004 41.250332,35.5673828 C42.1845815,34.2457616 43.6087209,33.5849609 45.522793,33.5849609 C47.436865,33.5849609 48.8610044,34.2514582 49.7952539,35.5844727 C50.7295034,36.9174871 51.1966211,38.9397651 51.1966211,41.6513672 L51.1966211,76.5830078 C51.1966211,79.3173965 50.7295034,81.3396744 49.7952539,82.6499023 C48.8610044,83.9601302 47.436865,84.6152344 45.522793,84.6152344 C43.6315075,84.6152344 42.2130646,83.9544337 41.2674219,82.6328125 C40.3217791,81.3111913 39.8489648,79.2946099 39.8489648,76.5830078 L39.8489648,63.9023438 L18.9993555,63.9023438 Z M66.6570508,36.96875 C66.6570508,35.2141839 67.2836721,33.7102927 68.5369336,32.4570312 C69.7901951,31.2037698 71.2940863,30.5771484 73.0486523,30.5771484 C74.7576453,30.5771484 76.2330537,31.1980732 77.4749219,32.4399414 C78.7167901,33.6818096 79.3377148,35.1913974 79.3377148,36.96875 C79.3377148,38.7461026 78.7281832,40.2499938 77.5091016,41.4804688 C76.2900199,42.7109437 74.8032184,43.3261719 73.0486523,43.3261719 C71.2940863,43.3261719 69.7901951,42.7109437 68.5369336,41.4804688 C67.2836721,40.2499938 66.6570508,38.7461026 66.6570508,36.96875 Z M78.4832227,76.4462891 C78.4832227,79.1578912 78.0388912,81.1744726 77.1502148,82.4960938 C76.2615385,83.8177149 74.8943647,84.4785156 73.0486523,84.4785156 C71.2257266,84.4785156 69.8471596,83.8177149 68.9129102,82.4960938 C67.9786607,81.1744726 67.511543,79.1578912 67.511543,76.4462891 L67.511543,54.2636719 C67.511543,51.5976429 67.961571,49.5981512 68.8616406,48.2651367 C69.7617102,46.9321222 71.1573668,46.265625 73.0486523,46.265625 C74.8943647,46.265625 76.2615385,46.9207291 77.1502148,48.230957 C78.0388912,49.5411849 78.4832227,51.5520698 78.4832227,54.2636719 L78.4832227,76.4462891 Z M105.222949,58.9462891 L114.622363,49.2050781 C115.579399,48.2024689 116.519331,47.4505233 117.442188,46.9492188 C118.365044,46.4479142 119.304976,46.1972656 120.262012,46.1972656 C121.583633,46.1972656 122.688765,46.6188109 123.577441,47.4619141 C124.466118,48.3050172 124.910449,49.3076114 124.910449,50.4697266 C124.910449,51.3356163 124.671194,52.2242793 124.192676,53.1357422 C123.714158,54.0472051 123.019178,54.9358681 122.107715,55.8017578 L114.690723,62.6376953 L124.978809,74.7714844 C125.753552,75.6829473 126.306118,76.5545206 126.636523,77.3862305 C126.966929,78.2179404 127.132129,79.1122999 127.132129,80.0693359 C127.132129,81.3225974 126.636528,82.3935502 125.645313,83.2822266 C124.654097,84.1709029 123.429337,84.6152344 121.970996,84.6152344 C120.9456,84.6152344 119.931613,84.3417996 118.929004,83.7949219 C118.017541,83.2480441 117.117485,82.3821674 116.228809,81.1972656 L105.222949,66.5 L105.222949,76.4462891 C105.222949,79.2034643 104.772921,81.254225 103.872852,82.5986328 C102.972782,83.9430406 101.577125,84.6152344 99.6858398,84.6152344 C97.8401275,84.6152344 96.4615605,83.9259509 95.5500977,82.5473633 C94.6386348,81.1687757 94.1829102,79.1351046 94.1829102,76.4462891 L94.1829102,38.6435547 C94.1829102,35.9319526 94.6329382,33.9096746 95.5330078,32.5766602 C96.4330774,31.2436457 97.8173409,30.5771484 99.6858398,30.5771484 C101.531552,30.5771484 102.915816,31.2550388 103.838672,32.6108398 C104.761528,33.9666409 105.222949,35.9775257 105.222949,38.6435547 L105.222949,58.9462891 Z M161.733184,80.6503906 C160.662215,81.9947984 159.312131,83.0315719 157.682891,83.7607422 C156.053651,84.4899125 154.327594,84.8544922 152.504668,84.8544922 C147.787848,84.8544922 143.817347,83.003111 140.593047,79.300293 C137.368747,75.597475 135.756621,70.9547805 135.756621,65.3720703 C135.756621,59.8805064 137.420016,55.2549016 140.746855,51.4951172 C144.073695,47.7353328 148.129644,45.8554688 152.914824,45.8554688 C154.783323,45.8554688 156.423932,46.1630829 157.836699,46.7783203 C159.249467,47.3935578 160.548282,48.3961519 161.733184,49.7861328 C162.325634,48.6468042 163.083277,47.7752309 164.006133,47.1713867 C164.928989,46.5675426 165.925887,46.265625 166.996855,46.265625 C168.842568,46.265625 170.209742,46.9150326 171.098418,48.2138672 C171.987094,49.5127018 172.431426,51.5292832 172.431426,54.2636719 L172.431426,76.4462891 C172.431426,79.1578912 171.975701,81.1744726 171.064238,82.4960938 C170.152775,83.8177149 168.796995,84.4785156 166.996855,84.4785156 C165.789167,84.4785156 164.763787,84.1709015 163.920684,83.5556641 C163.07758,82.9404266 162.348421,81.9720118 161.733184,80.6503906 Z M147.172637,65.2353516 C147.172637,67.9469537 147.827741,70.1287352 149.137969,71.7807617 C150.448197,73.4327882 152.174254,74.2587891 154.316191,74.2587891 C156.344196,74.2587891 158.030377,73.4156985 159.374785,71.7294922 C160.719193,70.0432858 161.391387,67.8785939 161.391387,65.2353516 C161.391387,62.6148958 160.730586,60.4900798 159.408965,58.8608398 C158.087344,57.2315999 156.389769,56.4169922 154.316191,56.4169922 C152.242613,56.4169922 150.533646,57.2372965 149.189238,58.8779297 C147.844831,60.5185629 147.172637,62.6376823 147.172637,65.2353516 Z M208.057871,50.6748047 C208.604749,49.1708909 209.271246,48.0600622 210.057383,47.3422852 C210.84352,46.6245081 211.817631,46.265625 212.979746,46.265625 C214.597593,46.265625 215.902104,46.7384393 216.89332,47.684082 C217.884536,48.6297248 218.380137,49.9114502 218.380137,51.5292969 C218.380137,52.0761746 218.317475,52.6173476 218.192148,53.152832 C218.066822,53.6883165 217.964284,54.0642893 217.884531,54.2807617 C217.804778,54.4972342 217.662364,54.8561173 217.457285,55.3574219 L200.640879,95.2792969 C199.957282,96.9655032 199.245212,98.1332975 198.504648,98.7827148 C197.764085,99.4321322 196.869725,99.7568359 195.821543,99.7568359 C194.158123,99.7568359 192.830825,99.2726285 191.839609,98.3041992 C190.848393,97.3357699 190.352793,96.0426513 190.352793,94.4248047 C190.352793,94.0146464 190.364186,93.7070323 190.386973,93.5019531 C190.409759,93.296874 190.472421,92.9778667 190.574961,92.5449219 C190.677501,92.111977 190.762949,91.7929698 190.831309,91.5878906 C190.899668,91.3828115 191.047779,91.0638042 191.275645,90.6308594 L195.821543,80.7871094 L184.678965,54.8105469 C184.519459,54.4003886 184.382741,53.9560571 184.268809,53.4775391 L184.13209,51.734375 C184.13209,50.2076747 184.650477,48.9145561 185.687266,47.8549805 C186.724055,46.7954049 187.982994,46.265625 189.464121,46.265625 C190.740169,46.265625 191.794032,46.6359012 192.625742,47.3764648 C193.457452,48.1170284 194.27206,49.5240782 195.06959,51.5976562 L201.290293,68.2431641 L208.057871,50.6748047 Z M238.318105,61.2363281 L252.878652,61.2363281 C252.878652,60.3704384 252.679273,59.5444375 252.280508,58.7583008 C251.881743,57.972164 251.329177,57.2373081 250.622793,56.5537109 C249.232812,55.3004495 247.603597,54.6738281 245.735098,54.6738281 C243.866599,54.6738281 242.265866,55.2605736 240.932852,56.434082 C239.599837,57.6075905 238.728264,59.2083232 238.318105,61.2363281 Z M238.454824,68.4482422 C238.68269,70.4762471 239.52578,72.0826764 240.984121,73.2675781 C242.442462,74.4524799 244.379291,75.0449219 246.794668,75.0449219 C248.868246,75.0449219 251.175352,74.4467833 253.716055,73.2504883 C256.256757,72.0541932 257.823311,71.4560547 258.415762,71.4560547 C259.737383,71.4560547 260.802639,71.8548137 261.611563,72.6523438 C262.420486,73.4498738 262.824941,74.4752542 262.824941,75.7285156 C262.824941,78.0755326 261.17294,80.2060451 257.868887,82.1201172 C254.564834,84.0341893 250.679781,84.9912109 246.213613,84.9912109 C240.767623,84.9912109 236.22177,83.1341332 232.575918,79.4199219 C228.930066,75.7057106 227.107168,71.0459265 227.107168,65.4404297 C227.107168,59.8121463 228.878797,55.1181829 232.422109,51.3583984 C235.965421,47.598614 240.380254,45.71875 245.666738,45.71875 C250.77093,45.71875 255.043349,47.4903794 258.484121,51.0336914 C261.924894,54.5770034 263.645254,58.8892975 263.645254,63.9707031 C263.645254,65.6113363 263.263585,66.7677375 262.500234,67.4399414 C261.736884,68.1121453 260.295655,68.4482422 258.176504,68.4482422 L238.454824,68.4482422 Z M276.26877,76.4462891 L276.26877,54.2636719 C276.26877,51.5292832 276.718798,49.4899156 277.618867,48.1455078 C278.518937,46.8011 279.9032,46.1289062 281.771699,46.1289062 C282.819882,46.1289062 283.793993,46.4308238 284.694063,47.034668 C285.594132,47.6385121 286.37456,48.5556579 287.035371,49.7861328 C288.1747,48.5328713 289.467818,47.610029 290.914766,47.0175781 C292.361713,46.4251272 294.008018,46.1289062 295.85373,46.1289062 C297.038632,46.1289062 298.149461,46.2314443 299.18625,46.4365234 C300.223039,46.6416026 301.208544,46.9720029 302.142793,47.4277344 C303.965719,48.2708375 305.537969,49.5696527 306.85959,51.3242188 C308.477436,49.501293 310.157921,48.1796916 311.901094,47.359375 C313.644267,46.5390584 315.666544,46.1289062 317.967988,46.1289062 C321.864492,46.1289062 324.917847,47.393542 327.128145,49.9228516 C329.338442,52.4521611 330.443574,56.0182062 330.443574,60.6210938 L330.443574,76.4462891 C330.443574,79.1578912 329.98785,81.1744726 329.076387,82.4960938 C328.164924,83.8177149 326.774964,84.4785156 324.906465,84.4785156 C323.083539,84.4785156 321.716365,83.8291081 320.804902,82.5302734 C319.893439,81.2314388 319.437715,79.2034643 319.437715,76.4462891 L319.437715,63.9707031 C319.437715,61.099595 319.033259,58.9861721 318.224336,57.6303711 C317.415413,56.27457 316.14508,55.5966797 314.413301,55.5966797 C312.499229,55.5966797 311.097876,56.2517838 310.209199,57.5620117 C309.320523,58.8722396 308.876191,60.9628763 308.876191,63.8339844 L308.876191,76.4462891 C308.876191,79.1578912 308.420467,81.1744726 307.509004,82.4960938 C306.597541,83.8177149 305.207581,84.4785156 303.339082,84.4785156 C301.516156,84.4785156 300.137589,83.8177149 299.20334,82.4960938 C298.26909,81.1744726 297.801973,79.1578912 297.801973,76.4462891 L297.801973,63.9707031 C297.801973,61.0312353 297.403214,58.9007228 296.605684,57.5791016 C295.808154,56.2574804 294.554911,55.5966797 292.845918,55.5966797 C290.931846,55.5966797 289.530493,56.2517838 288.641816,57.5620117 C287.75314,58.8722396 287.308809,60.9628763 287.308809,63.8339844 L287.308809,76.4462891 C287.308809,79.1578912 286.853084,81.1744726 285.941621,82.4960938 C285.030158,83.8177149 283.640198,84.4785156 281.771699,84.4785156 C279.948773,84.4785156 278.575903,83.8234115 277.653047,82.5131836 C276.730191,81.2029557 276.26877,79.1806777 276.26877,76.4462891 Z M344.981152,36.96875 C344.981152,35.2141839 345.607774,33.7102927 346.861035,32.4570312 C348.114297,31.2037698 349.618188,30.5771484 351.372754,30.5771484 C353.081747,30.5771484 354.557155,31.1980732 355.799023,32.4399414 C357.040892,33.6818096 357.661816,35.1913974 357.661816,36.96875 C357.661816,38.7461026 357.052285,40.2499938 355.833203,41.4804688 C354.614122,42.7109437 353.12732,43.3261719 351.372754,43.3261719 C349.618188,43.3261719 348.114297,42.7109437 346.861035,41.4804688 C345.607774,40.2499938 344.981152,38.7461026 344.981152,36.96875 Z M356.807324,76.4462891 C356.807324,79.1578912 356.362993,81.1744726 355.474316,82.4960938 C354.58564,83.8177149 353.218466,84.4785156 351.372754,84.4785156 C349.549828,84.4785156 348.171261,83.8177149 347.237012,82.4960938 C346.302762,81.1744726 345.835645,79.1578912 345.835645,76.4462891 L345.835645,54.2636719 C345.835645,51.5976429 346.285673,49.5981512 347.185742,48.2651367 C348.085812,46.9321222 349.481468,46.265625 351.372754,46.265625 C353.218466,46.265625 354.58564,46.9207291 355.474316,48.230957 C356.362993,49.5411849 356.807324,51.5520698 356.807324,54.2636719 L356.807324,76.4462891 Z M394.279473,73.7802734 C396.42141,73.7802734 398.107592,74.235998 399.338066,75.1474609 C400.568541,76.0589238 401.18377,77.3349527 401.18377,78.9755859 C401.18377,80.5934326 400.591328,81.8352821 399.406426,82.7011719 C398.221524,83.5670616 396.478377,84 394.176934,84 L374.113457,84 C371.90316,84 370.382179,83.7379583 369.550469,83.2138672 C368.718759,82.689776 368.30291,81.8125062 368.30291,80.5820312 C368.30291,79.9212207 368.439628,79.2319372 368.713066,78.5141602 C368.986505,77.7963831 369.408051,77.0843134 369.977715,76.3779297 L385.085137,56.7587891 L375.583184,56.7587891 C373.464032,56.7587891 371.777851,56.3144576 370.52459,55.4257812 C369.271328,54.5371049 368.644707,53.3066485 368.644707,51.734375 C368.644707,50.1165284 369.237149,48.8803754 370.422051,48.0258789 C371.606953,47.1713824 373.350099,46.7441406 375.651543,46.7441406 L393.356621,46.7441406 C396.159369,46.7441406 398.016447,46.9947892 398.92791,47.4960938 C399.839373,47.9973983 400.295098,48.8746682 400.295098,50.1279297 C400.295098,50.7887403 400.118504,51.5122031 399.765312,52.2983398 C399.412121,53.0844766 398.836768,53.967443 398.039238,54.9472656 L383.341973,73.7802734 L394.279473,73.7802734 Z" id="Hikayemiz" fill="#FFFFFF" transform="translate(204.417734, 65.166992) rotate(-4.000000) translate(-204.417734, -65.166992) "></path>
                    </g>
                    <g id="Sun" transform="translate(67.517842, 67.083620) scale(-1, 1) rotate(31.000000) translate(-67.517842, -67.083620) translate(18.517842, 19.083620)">
                        <path d="M82.7465221,47.2457438 C82.7465221,65.6730389 68.2864519,80.611128 50.4488302,80.611128 C32.6112085,80.611128 18.15085,65.6730389 18.15085,47.2457438 C18.15085,28.8184486 32.6112085,13.8800618 50.4488302,13.8800618 C68.2864519,13.8800618 82.7465221,28.8184486 82.7465221,47.2457438" id="Fill-1" fill="#FFDE00"></path>
                        <path d="M50.44854,15.1022971 C32.7246668,15.1022971 18.3053883,29.5215756 18.3053883,47.2454488 C18.3053883,64.9696142 32.7246668,79.3888927 50.44854,79.3888927 C68.1724131,79.3888927 82.5916916,64.9696142 82.5916916,47.2454488 C82.5916916,29.5215756 68.1724131,15.1022971 50.44854,15.1022971 M50.44854,80.611128 C32.0507131,80.611128 17.083153,65.6435679 17.083153,47.2454488 C17.083153,28.8476219 32.0507131,13.8800618 50.44854,13.8800618 C68.8463668,13.8800618 83.8142192,28.8476219 83.8142192,47.2454488 C83.8142192,65.6435679 68.8463668,80.611128 50.44854,80.611128" id="Fill-3" fill="#333333"></path>
                        <path d="M30.1322815,51.7750985 L30.1322815,51.7750985 C29.6238506,51.8597401 29.1634393,51.2800836 29.1091948,50.4867416 L28.8330814,46.4478782 C28.7788369,45.6545363 29.1503228,44.936123 29.6589761,44.8514813 C30.1674071,44.7668397 30.6278183,45.3468431 30.6820628,46.1398382 L30.9579539,50.1787016 C31.0121984,50.9723904 30.6407125,51.6908037 30.1322815,51.7750985" id="Fill-5" fill="#333333"></path>
                        <path d="M65.900021,42.6996778 L65.900021,42.6996778 C65.3916327,42.7843187 64.93126,42.2043202 64.8770201,41.410985 L64.6009299,37.372503 C64.5466899,36.5788209 64.9183669,35.8607606 65.4267553,35.7761197 C65.9351436,35.6911319 66.3955163,36.2711303 66.4497562,37.0644655 L66.7258464,41.1032945 C66.7798641,41.8966297 66.4084094,42.6150368 65.900021,42.6996778" id="Fill-7" fill="#333333"></path>
                        <path d="M49.3541254,53.9187015 C43.4277031,53.9187015 40.2580535,48.9821374 40.1227432,48.7665885 C39.9754857,48.5321482 40.026609,48.2091346 40.2369373,48.0449954 C40.4469877,47.8811659 40.7365016,47.9381501 40.8837592,48.1716613 C40.9148778,48.2215225 44.0767477,53.1144194 49.7808945,52.8734754 C55.4719826,52.6294345 58.8766886,45.2041483 58.9105857,45.1295114 C59.0256133,44.8733923 59.3048469,44.7702633 59.5340686,44.898168 C59.7635681,45.0263824 59.856646,45.3373178 59.7418963,45.5931272 C59.704943,45.6748871 58.8222311,47.623808 57.1704458,49.6294033 C54.9565811,52.31757 52.4134708,53.7969908 49.8164586,53.9084815 C49.6608657,53.9152949 49.5061064,53.9187015 49.3541254,53.9187015" id="Fill-9" fill="#333333"></path>
                        <g id="Group-15" transform="translate(0.000000, 46.978671)">
                            <mask id="mask-2" fill="white">
                                <use xlink:href="#path-1"></use>
                            </mask>
                            <g id="Clip-14"></g>
                            <path d="M0.989749966,1.9800442 C0.486005285,1.9800442 0.0547077557,1.73853112 0.00460411805,1.41544599 C-0.0485463624,1.07207462 0.35025151,0.76628618 0.894959301,0.732760492 L12.5034305,0.0182576197 C13.0457685,-0.0167628438 13.5329248,0.23606782 13.5860753,0.579866273 C13.6392258,0.923451187 13.2407664,1.22902609 12.6960587,1.26276531 L1.08724894,1.97705465 C1.05474928,1.97919004 1.02191109,1.9800442 0.989749966,1.9800442" id="Fill-13" fill="#333333" mask="url(#mask-2)"></path>
                        </g>
                        <path d="M12.9856419,35.7678515 C12.8604829,35.7678515 12.7331869,35.7393092 12.611691,35.6779102 L2.65452361,30.6816851 C2.20639308,30.4569977 2.01102282,29.8795145 2.21799319,29.3926364 C2.42465829,28.9054265 2.95551592,28.6923551 3.40364646,28.9177063 L13.3608139,33.9139314 C13.8089444,34.1386188 14.0043147,34.716102 13.7976496,35.2033119 C13.6468482,35.5587628 13.3235714,35.7678515 12.9856419,35.7678515" id="Fill-16" fill="#333333"></path>
                        <path d="M20.0110068,25.0908809 C19.7631826,25.0908809 19.518954,24.9740874 19.359915,24.7530649 L14.0394389,17.3493831 C13.7730831,16.9784423 13.8483155,16.4550131 14.2073287,16.18002 C14.5663419,15.905027 15.0733305,15.9826989 15.3399628,16.3530686 L20.6607156,23.7567504 C20.9270713,24.1276912 20.8518389,24.6511204 20.4928257,24.9261135 C20.3476162,25.0371959 20.17862,25.0908809 20.0110068,25.0908809" id="Fill-18" fill="#333333"></path>
                        <path d="M34.7782057,11.2108191 C34.3605871,11.2108191 33.972364,10.9852409 33.8372124,10.6311686 L31.0111914,3.22791815 C30.8436034,2.78846883 31.1291112,2.31760988 31.6487693,2.17569545 C32.1687653,2.03463764 32.7262658,2.27563519 32.8938539,2.71479897 L35.7198748,10.1180494 C35.8874629,10.5574988 35.601955,11.0283577 35.0822969,11.1702721 C34.9812711,11.1976842 34.8788937,11.2108191 34.7782057,11.2108191" id="Fill-20" fill="#333333"></path>
                        <path d="M53.9188839,9.07542501 C53.3291431,9.07542501 52.8510045,8.72845694 52.8510045,8.30076784 L52.8510045,0.77465717 C52.8510045,0.346968073 53.3291431,0 53.9188839,0 C54.5086247,0 54.9863986,0.346968073 54.9863986,0.77465717 L54.9863986,8.30076784 C54.9863986,8.72845694 54.5086247,9.07542501 53.9188839,9.07542501" id="Fill-22" fill="#333333"></path>
                        <path d="M69.8000923,16.0154559 C69.6539363,16.0154559 69.5058655,15.9834519 69.3673683,15.9161842 C68.9103914,15.6939341 68.7339191,15.1697201 68.9732576,14.7450742 L71.9091431,9.54056898 C72.1488007,9.11621941 72.7133204,8.95234698 73.1702973,9.17459711 C73.6272743,9.39714356 73.8037465,9.92135752 73.5640889,10.3457071 L70.6285226,15.5502123 C70.4613048,15.8459531 70.1364427,16.0154559 69.8000923,16.0154559" id="Fill-24" fill="#333333"></path>
                        <path d="M81.3707733,22.9554868 C81.1480287,22.9554868 80.9276179,22.8399324 80.7774793,22.6177361 C80.5155794,22.2298914 80.5687373,21.6637979 80.8959825,21.3533992 L86.317829,16.212459 C86.6453335,15.9023676 87.1229767,15.965062 87.3846173,16.353214 C87.6467765,16.7410588 87.5936186,17.3071522 87.2661141,17.617551 L81.8445269,22.7581838 C81.7045012,22.8909484 81.536989,22.9554868 81.3707733,22.9554868" id="Fill-26" fill="#333333"></path>
                        <path d="M86.9292331,33.6324574 C86.5514328,33.6324574 86.1913523,33.4221432 86.0308707,33.0704495 C85.815558,32.5971628 86.0429069,32.0469631 86.5383936,31.8411169 C86.8072002,31.7297366 93.157923,29.107352 96.6343545,28.8306565 C97.1739737,28.7910829 97.6460569,29.1702229 97.690858,29.6840405 C97.7356591,30.1984963 97.3354583,30.6497622 96.7968421,30.6928463 C93.641708,30.9436914 87.3819248,33.5287364 87.3190695,33.5545869 C87.1916873,33.6072452 87.0596243,33.6324574 86.9292331,33.6324574" id="Fill-28" fill="#333333"></path>
                        <path d="M96.9107939,46.9786706 L91.5377372,46.9786706 C91.1051731,46.9786706 90.7542501,46.5004503 90.7542501,45.9109736 C90.7542501,45.3214968 91.1051731,44.8432765 91.5377372,44.8432765 L96.9107939,44.8432765 C97.3436257,44.8432765 97.694281,45.3214968 97.694281,45.9109736 C97.694281,46.5004503 97.3436257,46.9786706 96.9107939,46.9786706" id="Fill-30" fill="#333333"></path>
                        <path d="M92.1528892,71.535703 C92.0022712,71.535703 91.8501444,71.4772996 91.7191394,71.3560248 L86.2513772,66.2845033 C85.9232361,65.9800397 85.8515731,65.3956865 86.0914556,64.9788841 C86.3313381,64.5624009 86.7917415,64.4711256 87.1198827,64.7755892 L92.5876448,69.8471107 C92.9160375,70.1515744 92.9877005,70.7359275 92.747818,71.153049 C92.6037376,71.4032581 92.3799478,71.535703 92.1528892,71.535703" id="Fill-32" fill="#333333"></path>
                        <path d="M86.616768,82.7465221 C86.3860266,82.7465221 86.154966,82.6582317 85.9743303,82.480323 L80.9028063,77.4836122 C80.5281308,77.1141862 80.5124927,76.4994719 80.8670622,76.1097989 C81.2222699,75.7201258 81.8133254,75.7038618 82.1880009,76.0729558 L87.2595249,81.0696666 C87.6342004,81.4390926 87.6498385,82.0538069 87.2949499,82.44348 C87.1114418,82.6449549 86.8641049,82.7465221 86.616768,82.7465221" id="Fill-34" fill="#333333"></path>
                        <path d="M68.6364876,92.8896442 C68.3868667,92.8896442 68.1422069,92.7207321 67.9954632,92.4093116 L64.7198416,85.4517225 C64.4892817,84.9616241 64.5890256,84.3058688 64.9425682,83.986491 C65.2963719,83.6667515 65.7697638,83.8049195 66.0003237,84.2946562 L69.2759453,91.252607 C69.5067663,91.7423437 69.4070224,92.3984607 69.0534798,92.7174768 C68.9244916,92.8343047 68.7795757,92.8896442 68.6364876,92.8896442" id="Fill-36" fill="#333333"></path>
                        <path d="M52.3524985,95.5588869 C52.1418067,95.5588869 51.9459213,95.2900109 51.8781868,94.8685573 L50.7394643,87.7791162 C50.655562,87.2573003 50.8000509,86.6985266 51.0621392,86.5313692 C51.3242275,86.3631946 51.6045258,86.6520752 51.6884281,87.1742302 L52.8271505,94.2636712 C52.9110528,94.7858262 52.7665639,95.3442608 52.5044756,95.5110792 C52.45393,95.5436291 52.4028739,95.5588869 52.3524985,95.5588869" id="Fill-38" fill="#333333"></path>
                        <path d="M38.9709427,95.5588869 C38.3811012,95.5588869 37.9032456,95.1845159 37.9032456,94.7230488 L37.9032456,87.3192999 C37.9032456,86.8575472 38.3811012,86.4834619 38.9709427,86.4834619 C39.5607842,86.4834619 40.0386397,86.8575472 40.0386397,87.3192999 L40.0386397,94.7230488 C40.0386397,95.1845159 39.5607842,95.5588869 38.9709427,95.5588869" id="Fill-40" fill="#333333"></path>
                    </g>
                    <g id="Clouds" transform="translate(121.000000, 27.000000)">
                        <g id="Cloud" transform="translate(358.000000, 47.000000)">
                            <path d="M0,38.9378828 C0,38.9378828 63.4212766,47.7874016 91.6085106,35.3980752 C91.6085106,35.3980752 95.1319149,10.6194226 81.0382979,10.6194226 C66.9446809,10.6194226 68.706383,26.5485564 68.706383,26.5485564 C68.706383,26.5485564 66.9446809,0 45.8042553,0 C24.6638298,0 29.9489362,30.088364 29.9489362,30.088364 C29.9489362,30.088364 24.6638298,21.2388451 12.3319149,21.2388451 C0,21.2388451 0,38.9378828 0,38.9378828" id="Fill-1" fill="#FFFFFF"></path>
                            <path d="M0,38.9378828 C0,38.9378828 63.4212766,47.7874016 91.6085106,35.3980752 C91.6085106,35.3980752 95.1319149,10.6194226 81.0382979,10.6194226 C66.9446809,10.6194226 68.706383,26.5485564 68.706383,26.5485564 C68.706383,26.5485564 66.9446809,0 45.8042553,0 C24.6638298,0 29.9489362,30.088364 29.9489362,30.088364 C29.9489362,30.088364 24.6638298,21.2388451 12.3319149,21.2388451 C0,21.2388451 0,38.9378828 0,38.9378828 Z" id="Stroke-3" stroke="#333333" stroke-width="2" stroke-linejoin="round"></path>
                            <path d="M35,17.5 C35,18.328 34.328,19 33.5,19 C32.672,19 32,18.328 32,17.5 C32,16.672 32.672,16 33.5,16 C34.328,16 35,16.672 35,17.5" id="Fill-5" fill="#333333"></path>
                            <path d="M59,16.5 C59,17.328 58.328,18 57.5,18 C56.672,18 56,17.328 56,16.5 C56,15.672 56.672,15 57.5,15 C58.328,15 59,15.672 59,16.5" id="Fill-7" fill="#333333"></path>
                            <path d="M43.5637168,24 C41.5476613,24 40.192424,21.5686772 40.1332224,21.4615276 C39.8900157,21.0153954 39.9892184,20.4134093 40.3540285,20.1153385 C40.7220386,19.8133713 41.2164522,19.9341582 41.464459,20.3783421 C41.7364665,20.8712305 42.6916928,22.1063736 43.6597195,22.0479284 C44.5957452,21.9719495 45.5717721,20.7582363 46.4837972,18.5373165 C46.6822027,18.0561172 47.1622159,17.8632478 47.5574267,18.1028734 C47.9526376,18.3424989 48.112642,18.9269515 47.9158366,19.410099 C46.7142035,22.3323619 45.314165,23.8753168 43.7541221,23.9922073 C43.6901203,23.9980518 43.6277186,24 43.5637168,24" id="Fill-9" fill="#333333"></path>
                        </g>
                        <g id="Cloud" transform="translate(17.500000, 12.500000) scale(-1, 1) translate(-17.500000, -12.500000) ">
                            <path d="M34.1314274,20.0395855 C34.1314274,20.0395855 39.1344054,-0.965626288 25.1260671,0.0346218949 C11.1177288,1.03487008 16.1207068,19.0393374 16.1207068,19.0393374 C16.1207068,19.0393374 15.1201112,10.0371037 7.11534644,10.0371037 C-0.889418305,10.0371037 -0.889418305,18.0390892 1.11177288,23.0403301 C1.11177288,23.0403301 27.1272583,29.0418192 34.1314274,20.0395855" id="Fill-1" fill="#FFFFFF"></path>
                            <path d="M34.1314274,20.0395855 C34.1314274,20.0395855 39.1344054,-0.965626288 25.1260671,0.0346218949 C11.1177288,1.03487008 16.1207068,19.0393374 16.1207068,19.0393374 C16.1207068,19.0393374 15.1201112,10.0371037 7.11534644,10.0371037 C-0.889418305,10.0371037 -0.889418305,18.0390892 1.11177288,23.0403301 C1.11177288,23.0403301 27.1272583,29.0418192 34.1314274,20.0395855 Z" id="Stroke-3" stroke="#333333" stroke-width="2" stroke-linecap="round" stroke-linejoin="round"></path>
                            <path d="M22.5806452,9.09090909 C22.5806452,9.71818182 22.0748387,10.2272727 21.4516129,10.2272727 C20.8283871,10.2272727 20.3225806,9.71818182 20.3225806,9.09090909 C20.3225806,8.46363636 20.8283871,7.95454545 21.4516129,7.95454545 C22.0748387,7.95454545 22.5806452,8.46363636 22.5806452,9.09090909" id="Fill-5" fill="#333333"></path>
                            <path d="M29.3548387,7.95454545 C29.3548387,8.58181818 28.8490323,9.09090909 28.2258065,9.09090909 C27.6025806,9.09090909 27.0967742,8.58181818 27.0967742,7.95454545 C27.0967742,7.32727273 27.6025806,6.81818182 28.2258065,6.81818182 C28.8490323,6.81818182 29.3548387,7.32727273 29.3548387,7.95454545" id="Fill-7" fill="#333333"></path>
                            <path d="M25.7360896,12.5 C24.156583,12.5 22.8367523,11.0978735 22.6854629,10.9307208 C22.5048189,10.7306711 22.5635282,10.4541579 22.8164299,10.3110111 C23.0704606,10.1687535 23.4227165,10.2140982 23.6033606,10.4132588 C23.9081974,10.746675 24.9706103,11.6873534 25.8377019,11.6064444 C26.3254408,11.5646563 26.7646317,11.1912301 27.1428552,10.4977242 C27.26479,10.2710012 27.5978525,10.1660862 27.8834959,10.2638883 C28.1702683,10.3608013 28.3023643,10.6221996 28.1804296,10.8471445 C27.6294652,11.8589517 26.8820504,12.4119781 25.9585076,12.4902198 C25.8839919,12.4973327 25.8094762,12.5 25.7360896,12.5" id="Fill-9" fill="#333333"></path>
                        </g>
                    </g>
                    <g id="Cloud" transform="translate(202.000000, 118.000000)">
                        <path d="M40.9577129,24.0475027 C40.9577129,24.0475027 46.9612865,-1.15875155 30.1512805,0.0415462739 C13.3412746,1.24184409 19.3448481,22.8472048 19.3448481,22.8472048 C19.3448481,22.8472048 18.1441334,12.0445245 8.53841572,12.0445245 C-1.06730197,12.0445245 -1.06730197,21.646907 1.33412746,27.6483961 C1.33412746,27.6483961 32.5527099,34.850183 40.9577129,24.0475027" id="Fill-1" fill="#FFFFFF"></path>
                        <path d="M40.9577129,24.0475027 C40.9577129,24.0475027 46.9612865,-1.15875155 30.1512805,0.0415462739 C13.3412746,1.24184409 19.3448481,22.8472048 19.3448481,22.8472048 C19.3448481,22.8472048 18.1441334,12.0445245 8.53841572,12.0445245 C-1.06730197,12.0445245 -1.06730197,21.646907 1.33412746,27.6483961 C1.33412746,27.6483961 32.5527099,34.850183 40.9577129,24.0475027 Z" id="Stroke-3" stroke="#333333" stroke-width="2" stroke-linecap="round" stroke-linejoin="round"></path>
                        <path d="M27,10 C27,10.552 26.552,11 26,11 C25.448,11 25,10.552 25,10 C25,9.448 25.448,9 26,9 C26.552,9 27,9.448 27,10" id="Fill-5" fill="#333333"></path>
                        <path d="M34,10 C34,10.552 33.552,11 33,11 C32.448,11 32,10.552 32,10 C32,9.448 32.448,9 33,9 C33.552,9 34,9.448 34,10" id="Fill-7" fill="#333333"></path>
                        <path d="M30.9127511,16 C28.954163,16 27.3175729,14.149193 27.129974,13.9285515 C26.9059754,13.6644858 26.978775,13.2994884 27.2923731,13.1105347 C27.6073711,12.9227547 28.0441685,12.9826096 28.2681671,13.2455016 C28.6461648,13.6856111 29.9635568,14.9273065 31.0387503,14.8205067 C31.6435466,14.7653463 32.1881433,14.2724237 32.6571405,13.356996 C32.8083396,13.0577216 33.2213371,12.9192338 33.5755349,13.0483326 C33.9311327,13.1762577 34.0949317,13.5213035 33.9437327,13.8182307 C33.2605368,15.1538162 32.3337424,15.8838111 31.1885494,15.9870901 C31.09615,15.9964791 31.0037505,16 30.9127511,16" id="Fill-9" fill="#333333"></path>
                    </g>
                </g>
            </g>
        </g>
    </g>
</svg>